NaN;NaN;1.0;1.0;0.3;NaN;0.3;1.0
NaN;NaN;1.0;1.0;0.3;NaN;0.3;1.0
NaN;2.0;NaN;2.0;1.0;NaN;NaN;1.0
NaN;1.0;NaN;1.0;0.5;NaN;NaN;1.0
2.0;1.0;NaN;3.0;2.5;1.0;NaN;1.0
1.0;1.0;NaN;2.0;1.5;1.0;NaN;1.0
NaN;2.0;NaN;2.0;1.0;NaN;NaN;1.0
NaN;2.0;NaN;2.0;1.0;NaN;NaN;1.0
NaN;2.0;NaN;2.0;1.0;NaN;NaN;1.0
1.0;NaN;NaN;1.0;1.0;1.0;NaN;1.0
NaN;1.0;NaN;1.0;0.5;NaN;NaN;1.0
NaN;1.0;NaN;1.0;0.5;NaN;NaN;1.0
NaN;1.0;NaN;1.0;0.5;NaN;NaN;1.0
2.0;2.0;NaN;4.0;3.0;1.0;NaN;1.0
NaN;NaN;1.0;1.0;0.3;NaN;0.3;1.0
NaN;1.0;NaN;1.0;0.5;NaN;NaN;1.0
1.0;2.0;NaN;3.0;2.0;1.0;NaN;1.0
1.0;NaN;NaN;1.0;1.0;1.0;NaN;1.0
1.0;NaN;NaN;1.0;1.0;1.0;NaN;1.0
2.0;2.0;NaN;4.0;3.0;1.0;NaN;1.0
1.0;1.0;NaN;2.0;1.5;1.0;NaN;1.0
2.0;1.0;NaN;3.0;2.5;1.0;NaN;1.0
1.0;4.0;NaN;5.0;3.0;1.0;NaN;1.0
NaN;1.0;NaN;1.0;0.5;NaN;NaN;1.0
NaN;1.0;NaN;1.0;0.5;NaN;NaN;1.0
2.0;2.0;NaN;4.0;3.0;1.0;NaN;1.0
NaN;1.0;NaN;1.0;0.5;NaN;NaN;1.0
NaN;1.0;NaN;1.0;0.5;NaN;NaN;1.0
NaN;2.0;NaN;2.0;1.0;NaN;NaN;1.0
NaN;2.0;NaN;2.0;1.0;NaN;NaN;1.0
NaN;2.0;NaN;2.0;1.0;NaN;NaN;1.0
NaN;1.0;NaN;1.0;0.5;NaN;NaN;1.0
2.0;2.0;NaN;4.0;3.0;1.0;NaN;1.0
1.0;1.0;NaN;2.0;1.5;1.0;NaN;1.0
NaN;1.0;NaN;1.0;0.5;NaN;NaN;1.0
3.0;1.0;NaN;4.0;3.5;1.0;NaN;1.0
2.0;1.0;NaN;3.0;2.5;1.0;NaN;1.0
NaN;1.0;NaN;1.0;0.5;NaN;NaN;1.0
NaN;1.0;NaN;1.0;0.5;NaN;NaN;1.0
1.0;3.0;NaN;4.0;2.5;1.0;NaN;1.0
1.0;NaN;NaN;1.0;1.0;1.0;NaN;1.0
NaN;1.0;NaN;1.0;0.5;NaN;NaN;1.0
1.0;NaN;NaN;1.0;1.0;1.0;NaN;1.0
1.0;NaN;NaN;1.0;0.7;0.7;NaN;1.0
1.0;1.0;NaN;2.0;1.5;1.0;NaN;1.0
1.0;NaN;NaN;1.0;1.0;1.0;NaN;1.0
NaN;1.0;NaN;1.0;0.5;NaN;NaN;1.0
1.0;4.0;NaN;5.0;3.0;1.0;NaN;1.0
NaN;1.0;NaN;1.0;0.5;NaN;NaN;1.0
3.0;NaN;NaN;3.0;3.0;1.0;NaN;1.0
1.0;1.0;NaN;2.0;1.5;1.0;NaN;1.0
1.0;3.0;NaN;4.0;2.5;1.0;NaN;1.0
NaN;1.0;NaN;1.0;0.5;NaN;NaN;1.0
1.0;NaN;NaN;1.0;1.0;1.0;NaN;1.0
1.0;NaN;NaN;1.0;1.0;1.0;NaN;1.0
NaN;1.0;NaN;1.0;0.5;NaN;NaN;1.0
NaN;1.0;NaN;1.0;0.5;NaN;NaN;1.0
NaN;3.0;NaN;3.0;1.5;NaN;NaN;1.0
1.0;1.0;NaN;2.0;1.5;1.0;NaN;1.0
NaN;1.0;NaN;1.0;0.5;NaN;NaN;1.0
NaN;1.0;NaN;1.0;0.5;NaN;NaN;1.0
4.0;NaN;NaN;4.0;4.0;1.0;NaN;1.0
NaN;1.0;NaN;1.0;0.5144231033742855;NaN;NaN;1.0
3.0;1.0;NaN;4.0;3.5;1.0;NaN;1.0
1.0;NaN;NaN;1.0;1.0;1.0;NaN;1.0
2.0;NaN;NaN;2.0;2.0;1.0;NaN;1.0
1.0;NaN;NaN;1.0;1.0;1.0;NaN;1.0
2.0;NaN;NaN;2.0;2.0;1.0;NaN;1.0
3.0;3.0;NaN;6.0;4.5;1.0;NaN;1.0
1.0;2.0;NaN;3.0;2.0;1.0;NaN;1.0
NaN;2.0;NaN;2.0;1.0;NaN;NaN;1.0
2.0;NaN;NaN;2.0;2.0;1.0;NaN;1.0
1.0;NaN;NaN;1.0;1.0;1.0;NaN;1.0
NaN;1.0;NaN;1.0;0.5;NaN;NaN;1.0
NaN;1.0;NaN;1.0;0.5;NaN;NaN;1.0
1.0;3.0;NaN;4.0;2.5;1.0;NaN;1.0
NaN;2.0;NaN;2.0;1.0;NaN;NaN;1.0
1.0;2.0;NaN;3.0;2.0;1.0;NaN;1.0
1.0;NaN;NaN;1.0;1.0;1.0;NaN;1.0
1.0;NaN;NaN;1.0;1.0;1.0;NaN;1.0
1.0;1.0;NaN;2.0;1.5;1.0;NaN;1.0
NaN;1.0;NaN;1.0;0.5;NaN;NaN;1.0
NaN;1.0;NaN;1.0;0.5;NaN;NaN;1.0
NaN;2.0;NaN;2.0;1.0;NaN;NaN;1.0
NaN;2.0;NaN;2.0;1.0;NaN;NaN;1.0
NaN;1.0;NaN;1.0;0.5;NaN;NaN;1.0
NaN;1.0;NaN;1.0;0.5;NaN;NaN;1.0
NaN;1.0;NaN;1.0;0.5;NaN;NaN;1.0
1.0;NaN;NaN;1.0;1.0;1.0;NaN;1.0
NaN;1.0;NaN;1.0;0.5;NaN;NaN;1.0
1.0;2.0;NaN;3.0;2.0;1.0;NaN;1.0
NaN;1.0;NaN;1.0;0.5;NaN;NaN;1.0
NaN;1.0;NaN;1.0;0.5;NaN;NaN;1.0
1.0;1.0;NaN;2.0;1.5;1.0;NaN;1.0
2.0;NaN;NaN;2.0;2.0;1.0;NaN;1.0
3.0;1.0;NaN;4.0;3.5;1.0;NaN;1.0
1.0;NaN;NaN;1.0;1.0;1.0;NaN;1.0
1.0;3.0;NaN;4.0;2.5;1.0;NaN;1.0
NaN;3.0;NaN;3.0;1.5;NaN;NaN;1.0
1.0;1.0;NaN;2.0;1.5;1.0;NaN;1.0
4.0;NaN;NaN;4.0;4.0;1.0;NaN;1.0
1.0;NaN;NaN;1.0;1.0;1.0;NaN;1.0
1.0;NaN;NaN;1.0;1.0;1.0;NaN;1.0
1.0;NaN;NaN;1.0;1.0;1.0;NaN;1.0
NaN;3.0;NaN;3.0;1.5;NaN;NaN;1.0
NaN;1.0;NaN;1.0;0.5;NaN;NaN;1.0
1.0;2.0;NaN;3.0;2.0;1.0;NaN;1.0
1.0;2.0;NaN;3.0;2.0;1.0;NaN;1.0
1.0;1.0;NaN;2.0;1.5;1.0;NaN;1.0
NaN;1.0;NaN;1.0;0.5;NaN;NaN;1.0
1.0;1.0;NaN;2.0;1.5;1.0;NaN;1.0
NaN;1.0;NaN;1.0;0.5;NaN;NaN;1.0
2.0;NaN;NaN;2.0;2.0;1.0;NaN;1.0
NaN;5.0;NaN;5.0;2.5;NaN;NaN;1.0
NaN;1.0;NaN;1.0;0.5144231033742855;NaN;NaN;1.0
NaN;1.0;NaN;1.0;0.5144231033742855;NaN;NaN;1.0
1.0;NaN;NaN;1.0;0.8;0.8;NaN;1.0
NaN;1.0;NaN;1.0;0.5;NaN;NaN;1.0
NaN;NaN;1.0;1.0;0.4;NaN;0.4;1.0
NaN;1.0;NaN;1.0;0.5;NaN;NaN;1.0
NaN;4.0;NaN;4.0;2.0;NaN;NaN;1.0
2.0;2.0;NaN;4.0;3.0;1.0;NaN;1.0
NaN;1.0;NaN;1.0;0.5;NaN;NaN;1.0
2.0;NaN;NaN;2.0;2.0;1.0;NaN;1.0
NaN;1.0;NaN;1.0;0.5;NaN;NaN;1.0
NaN;NaN;1.0;1.0;0.4;NaN;0.4;1.0
1.0;2.0;NaN;3.0;2.0;1.0;NaN;1.0
1.0;NaN;NaN;1.0;0.7;0.7;NaN;1.0
1.0;1.0;NaN;2.0;1.5;1.0;NaN;1.0
1.0;3.0;NaN;4.0;2.5;1.0;NaN;1.0
1.0;NaN;NaN;1.0;1.0;1.0;NaN;1.0
1.0;NaN;NaN;1.0;1.0;1.0;NaN;1.0
1.0;NaN;NaN;1.0;1.0;1.0;NaN;1.0
2.0;1.0;NaN;3.0;2.5;1.0;NaN;1.0
NaN;1.0;NaN;1.0;0.5;NaN;NaN;1.0
NaN;1.0;NaN;1.0;0.5;NaN;NaN;1.0
1.0;1.0;NaN;2.0;1.5;1.0;NaN;1.0
1.0;1.0;NaN;2.0;1.5;1.0;NaN;1.0
1.0;1.0;NaN;2.0;1.5;1.0;NaN;1.0
1.0;1.0;NaN;2.0;1.5;1.0;NaN;1.0
NaN;2.0;NaN;2.0;1.0;NaN;NaN;1.0
1.0;1.0;NaN;2.0;1.5;1.0;NaN;1.0
1.0;NaN;NaN;1.0;1.0;1.0;NaN;1.0
NaN;1.0;NaN;1.0;0.5;NaN;NaN;1.0
NaN;3.0;NaN;3.0;1.5;NaN;NaN;1.0
NaN;5.0;NaN;5.0;2.5;NaN;NaN;1.0
1.0;3.0;NaN;4.0;2.5;1.0;NaN;1.0
1.0;1.0;NaN;2.0;1.5;1.0;NaN;1.0
1.0;2.0;NaN;3.0;2.0;1.0;NaN;1.0
4.0;NaN;NaN;4.0;4.0;1.0;NaN;1.0
2.0;1.0;NaN;3.0;2.5;1.0;NaN;1.0
NaN;1.0;NaN;1.0;0.5;NaN;NaN;1.0
NaN;NaN;1.0;1.0;0.4;NaN;0.4;1.0
1.0;1.0;NaN;2.0;1.5;1.0;NaN;1.0
1.0;NaN;NaN;1.0;1.0;1.0;NaN;1.0
1.0;NaN;NaN;1.0;1.0;1.0;NaN;0.0
1.0;NaN;NaN;1.0;1.0;1.0;NaN;0.0
1.0;NaN;NaN;1.0;1.0;1.0;NaN;0.0
NaN;1.0;NaN;1.0;0.5;NaN;NaN;0.0
2.0;1.0;NaN;3.0;2.5;1.0;NaN;0.0
1.0;NaN;NaN;1.0;1.0;1.0;NaN;0.0
NaN;1.0;NaN;1.0;0.5;NaN;NaN;0.0
1.0;NaN;NaN;1.0;1.0;1.0;NaN;0.0
1.0;NaN;NaN;1.0;1.0;1.0;NaN;0.0
1.0;NaN;NaN;1.0;1.0;1.0;NaN;0.0
1.0;NaN;NaN;1.0;1.0;1.0;NaN;0.0
1.0;NaN;NaN;1.0;1.0;1.0;NaN;0.0
NaN;1.0;NaN;1.0;0.5;NaN;NaN;0.0
1.0;2.0;NaN;3.0;2.0;1.0;NaN;0.0
2.0;NaN;NaN;2.0;2.0;1.0;NaN;0.0
2.0;1.0;NaN;3.0;2.5;1.0;NaN;0.0
1.0;1.0;NaN;2.0;1.5;1.0;NaN;0.0
1.0;NaN;NaN;1.0;1.0;1.0;NaN;0.0
NaN;2.0;NaN;2.0;1.0;NaN;NaN;0.0
1.0;NaN;NaN;1.0;1.0;1.0;NaN;0.0
NaN;1.0;NaN;1.0;0.5;NaN;NaN;0.0
NaN;1.0;NaN;1.0;0.5;NaN;NaN;0.0
4.0;NaN;NaN;4.0;4.0;1.0;NaN;0.0
1.0;1.0;NaN;2.0;1.5;1.0;NaN;0.0
2.0;1.0;NaN;3.0;2.5;1.0;NaN;0.0
3.0;1.0;NaN;4.0;3.5;1.0;NaN;0.0
2.0;NaN;NaN;2.0;2.0;1.0;NaN;0.0
2.0;NaN;NaN;2.0;2.0;1.0;NaN;0.0
1.0;2.0;NaN;3.0;2.0;1.0;NaN;0.0
1.0;3.0;NaN;4.0;2.5;1.0;NaN;0.0
2.0;NaN;NaN;2.0;2.0;1.0;NaN;0.0
2.0;NaN;NaN;2.0;2.0;1.0;NaN;0.0
1.0;NaN;NaN;1.0;1.0;1.0;NaN;0.0
2.0;5.0;NaN;7.0;4.5;1.0;NaN;0.0
NaN;1.0;NaN;1.0;0.5;NaN;NaN;0.0
1.0;1.0;NaN;2.0;1.5;1.0;NaN;0.0
1.0;NaN;NaN;1.0;1.0;1.0;NaN;0.0
3.0;NaN;NaN;3.0;3.0;1.0;NaN;0.0
1.0;NaN;NaN;1.0;1.0;1.0;NaN;0.0
NaN;1.0;NaN;1.0;0.5;NaN;NaN;0.0
2.0;NaN;NaN;2.0;2.0;1.0;NaN;0.0
1.0;2.0;NaN;3.0;2.0;1.0;NaN;0.0
NaN;2.0;NaN;2.0;1.0;NaN;NaN;0.0
NaN;1.0;NaN;1.0;0.5;NaN;NaN;0.0
NaN;1.0;NaN;1.0;0.5;NaN;NaN;0.0
2.0;NaN;NaN;2.0;2.0;1.0;NaN;0.0
1.0;2.0;NaN;3.0;2.0;1.0;NaN;0.0
1.0;NaN;NaN;1.0;1.0;1.0;NaN;0.0
2.0;NaN;NaN;2.0;2.0;1.0;NaN;0.0
1.0;NaN;NaN;1.0;1.0;1.0;NaN;0.0
2.0;NaN;NaN;2.0;2.0;1.0;NaN;0.0
4.0;2.0;NaN;6.0;5.0;1.0;NaN;0.0
3.0;1.0;NaN;4.0;3.5;1.0;NaN;0.0
1.0;1.0;NaN;2.0;1.5;1.0;NaN;0.0
1.0;NaN;NaN;1.0;0.6;0.6;NaN;0.0
1.0;1.0;NaN;2.0;1.5;1.0;NaN;0.0
3.0;NaN;NaN;3.0;3.0;1.0;NaN;0.0
NaN;1.0;NaN;1.0;0.5;NaN;NaN;0.0
4.0;NaN;NaN;4.0;4.0;1.0;NaN;0.0
1.0;1.0;NaN;2.0;1.5;1.0;NaN;0.0
1.0;NaN;NaN;1.0;1.0;1.0;NaN;0.0
1.0;NaN;NaN;1.0;1.0;1.0;NaN;0.0
1.0;NaN;NaN;1.0;1.0;1.0;NaN;0.0
NaN;1.0;NaN;1.0;0.5;NaN;NaN;0.0
2.0;NaN;NaN;2.0;2.0;1.0;NaN;0.0
1.0;NaN;NaN;1.0;1.0;1.0;NaN;0.0
1.0;1.0;NaN;2.0;1.5;1.0;NaN;0.0
2.0;1.0;NaN;3.0;2.5;1.0;NaN;0.0
NaN;2.0;NaN;2.0;1.0;NaN;NaN;0.0
1.0;NaN;NaN;1.0;0.7;0.7;NaN;0.0
3.0;1.0;NaN;4.0;3.5;1.0;NaN;0.0
1.0;NaN;NaN;1.0;1.0;1.0;NaN;0.0
NaN;1.0;NaN;1.0;0.5;NaN;NaN;0.0
1.0;3.0;NaN;4.0;2.5;1.0;NaN;0.0
NaN;3.0;NaN;3.0;1.5;NaN;NaN;0.0
1.0;NaN;NaN;1.0;1.0;1.0;NaN;0.0
1.0;NaN;NaN;1.0;1.0;1.0;NaN;0.0
1.0;1.0;NaN;2.0;1.5;1.0;NaN;0.0
1.0;NaN;NaN;1.0;1.0;1.0;NaN;0.0
2.0;4.0;NaN;6.0;4.0;1.0;NaN;0.0
NaN;1.0;NaN;1.0;0.5;NaN;NaN;0.0
2.0;1.0;NaN;3.0;2.5;1.0;NaN;0.0
1.0;NaN;NaN;1.0;1.0;1.0;NaN;0.0
1.0;1.0;NaN;2.0;1.5;1.0;NaN;0.0
1.0;NaN;NaN;1.0;1.0;1.0;NaN;0.0
2.0;6.0;NaN;8.0;5.0;1.0;NaN;0.0
1.0;2.0;NaN;3.0;2.0;1.0;NaN;0.0
NaN;3.0;NaN;3.0;1.5;NaN;NaN;0.0
1.0;NaN;NaN;1.0;1.0;1.0;NaN;0.0
NaN;1.0;NaN;1.0;0.5;NaN;NaN;0.0
NaN;1.0;NaN;1.0;0.5;NaN;NaN;0.0
2.0;NaN;NaN;2.0;2.0;1.0;NaN;0.0
2.0;6.0;NaN;8.0;5.0;1.0;NaN;0.0
1.0;NaN;NaN;1.0;1.0;1.0;NaN;0.0
NaN;2.0;NaN;2.0;1.0;NaN;NaN;0.0
1.0;1.0;NaN;2.0;1.5;1.0;NaN;0.0
1.0;1.0;NaN;2.0;1.5;1.0;NaN;0.0
1.0;3.0;NaN;4.0;2.5;1.0;NaN;0.0
1.0;NaN;NaN;1.0;1.0;1.0;NaN;0.0
1.0;1.0;NaN;2.0;1.5;1.0;NaN;0.0
1.0;1.0;NaN;2.0;1.5;1.0;NaN;0.0
NaN;2.0;NaN;2.0;1.0;NaN;NaN;0.0
1.0;1.0;NaN;2.0;1.5;1.0;NaN;0.0
5.0;2.0;NaN;7.0;6.0;1.0;NaN;0.0
1.0;NaN;NaN;1.0;1.0;1.0;NaN;0.0
1.0;1.0;NaN;2.0;1.5;1.0;NaN;0.0
3.0;NaN;NaN;3.0;3.0;1.0;NaN;0.0
NaN;1.0;NaN;1.0;0.5;NaN;NaN;0.0
2.0;NaN;NaN;2.0;2.0;1.0;NaN;0.0
NaN;NaN;1.0;1.0;0.4;NaN;0.4;0.0
1.0;1.0;NaN;2.0;1.5;1.0;NaN;0.0
1.0;NaN;NaN;1.0;1.0;1.0;NaN;0.0
1.0;2.0;NaN;3.0;2.0;1.0;NaN;0.0
1.0;1.0;NaN;2.0;1.5;1.0;NaN;0.0
1.0;NaN;NaN;1.0;1.0;1.0;NaN;0.0
1.0;NaN;NaN;1.0;1.0;1.0;NaN;0.0
1.0;1.0;NaN;2.0;1.5;1.0;NaN;0.0
1.0;NaN;NaN;1.0;1.0;1.0;NaN;0.0
1.0;NaN;NaN;1.0;1.0;1.0;NaN;0.0
2.0;NaN;NaN;2.0;2.0;1.0;NaN;0.0
NaN;1.0;NaN;1.0;0.5144231033742855;NaN;NaN;0.0
NaN;2.0;NaN;2.0;1.0;NaN;NaN;0.0
1.0;NaN;NaN;1.0;1.0;1.0;NaN;0.0
NaN;1.0;NaN;1.0;0.5;NaN;NaN;0.0
NaN;3.0;NaN;3.0;1.5;NaN;NaN;0.0
1.0;NaN;NaN;1.0;1.0;1.0;NaN;0.0
1.0;1.0;NaN;2.0;1.5;1.0;NaN;0.0
1.0;NaN;NaN;1.0;1.0;1.0;NaN;0.0
3.0;2.0;NaN;5.0;4.0;1.0;NaN;0.0
2.0;NaN;NaN;2.0;2.0;1.0;NaN;0.0
NaN;1.0;NaN;1.0;0.5;NaN;NaN;0.0
1.0;NaN;NaN;1.0;1.0;1.0;NaN;0.0
1.0;1.0;NaN;2.0;1.5;1.0;NaN;0.0
2.0;1.0;NaN;3.0;2.5;1.0;NaN;0.0
2.0;1.0;NaN;3.0;2.5;1.0;NaN;0.0
1.0;NaN;NaN;1.0;1.0;1.0;NaN;0.0
1.0;NaN;NaN;1.0;1.0;1.0;NaN;0.0
2.0;1.0;NaN;3.0;2.5;1.0;NaN;0.0
1.0;NaN;NaN;1.0;1.0;1.0;NaN;0.0
NaN;1.0;NaN;1.0;0.5;NaN;NaN;0.0
NaN;2.0;NaN;2.0;1.0;NaN;NaN;0.0
NaN;1.0;NaN;1.0;0.5;NaN;NaN;0.0
NaN;1.0;NaN;1.0;0.5;NaN;NaN;0.0
3.0;NaN;NaN;3.0;3.0;1.0;NaN;0.0
NaN;1.0;NaN;1.0;0.5;NaN;NaN;0.0
1.0;2.0;NaN;3.0;2.0;1.0;NaN;0.0
1.0;NaN;NaN;1.0;1.0;1.0;NaN;0.0
2.0;NaN;NaN;2.0;2.0;1.0;NaN;0.0
NaN;2.0;NaN;2.0;1.0;NaN;NaN;0.0
NaN;1.0;NaN;1.0;0.5;NaN;NaN;0.0
3.0;NaN;NaN;3.0;3.0;1.0;NaN;0.0
1.0;NaN;NaN;1.0;1.0;1.0;NaN;0.0
1.0;1.0;NaN;2.0;1.5;1.0;NaN;0.0
1.0;NaN;NaN;1.0;1.0;1.0;NaN;0.0
1.0;1.0;NaN;2.0;1.5;1.0;NaN;0.0
1.0;1.0;NaN;2.0;1.5;1.0;NaN;0.0
3.0;NaN;NaN;3.0;3.0;1.0;NaN;0.0
NaN;1.0;NaN;1.0;0.5;NaN;NaN;0.0
NaN;2.0;NaN;2.0;1.0;NaN;NaN;0.0
1.0;NaN;NaN;1.0;1.0;1.0;NaN;0.0
2.0;1.0;NaN;3.0;2.5;1.0;NaN;0.0
1.0;2.0;NaN;3.0;2.0;1.0;NaN;0.0
1.0;NaN;NaN;1.0;1.0;1.0;NaN;0.0
NaN;1.0;NaN;1.0;0.5;NaN;NaN;0.0
2.0;1.0;NaN;3.0;2.5;1.0;NaN;0.0
NaN;NaN;1.0;1.0;0.4;NaN;0.4;0.0
NaN;NaN;1.0;1.0;0.4;NaN;0.4;0.0
2.0;1.0;NaN;3.0;2.5;1.0;NaN;0.0
2.0;1.0;NaN;3.0;2.5;1.0;NaN;0.0
1.0;1.0;NaN;2.0;1.5;1.0;NaN;0.0
2.0;NaN;NaN;2.0;2.0;1.0;NaN;0.0
3.0;NaN;NaN;3.0;3.0;1.0;NaN;0.0
1.0;2.0;NaN;3.0;2.0;1.0;NaN;0.0
1.0;NaN;NaN;1.0;1.0;1.0;NaN;0.0
3.0;1.0;NaN;4.0;3.5;1.0;NaN;0.0
1.0;NaN;NaN;1.0;1.0;1.0;NaN;0.0
NaN;NaN;1.0;1.0;0.3;NaN;0.3;0.0
1.0;NaN;NaN;1.0;1.0;1.0;NaN;0.0
NaN;1.0;NaN;1.0;0.5;NaN;NaN;0.0
NaN;1.0;NaN;1.0;0.5;NaN;NaN;0.0
1.0;NaN;NaN;1.0;1.0;1.0;NaN;0.0
1.0;1.0;NaN;2.0;1.5;1.0;NaN;0.0
2.0;1.0;NaN;3.0;2.5;1.0;NaN;0.0
1.0;NaN;NaN;1.0;1.0;1.0;NaN;0.0
1.0;1.0;NaN;2.0;1.5;1.0;NaN;0.0
1.0;NaN;NaN;1.0;1.0;1.0;NaN;0.0
NaN;NaN;1.0;1.0;0.4;NaN;0.4;0.0
2.0;NaN;NaN;2.0;2.0;1.0;NaN;0.0
1.0;NaN;NaN;1.0;1.0;1.0;NaN;0.0
1.0;NaN;NaN;1.0;1.0;1.0;NaN;0.0
1.0;NaN;NaN;1.0;1.0;1.0;NaN;0.0
1.0;NaN;NaN;1.0;1.0;1.0;NaN;0.0
4.0;NaN;NaN;4.0;4.0;1.0;NaN;0.0
1.0;4.0;NaN;5.0;3.0;1.0;NaN;0.0
2.0;3.0;NaN;5.0;3.5;1.0;NaN;0.0
1.0;NaN;NaN;1.0;1.0;1.0;NaN;0.0
3.0;NaN;NaN;3.0;3.0;1.0;NaN;0.0
1.0;NaN;NaN;1.0;1.0;1.0;NaN;0.0
1.0;NaN;NaN;1.0;1.0;1.0;NaN;0.0
1.0;NaN;NaN;1.0;1.0;1.0;NaN;0.0
1.0;NaN;NaN;1.0;1.0;1.0;NaN;0.0
NaN;1.0;NaN;1.0;0.5;NaN;NaN;0.0
NaN;NaN;1.0;1.0;0.4;NaN;0.4;0.0
1.0;1.0;NaN;2.0;1.5;1.0;NaN;0.0
1.0;2.0;NaN;3.0;2.0;1.0;NaN;0.0
NaN;1.0;NaN;1.0;0.5;NaN;NaN;0.0
3.0;NaN;NaN;3.0;3.0;1.0;NaN;0.0
NaN;1.0;NaN;1.0;0.5;NaN;NaN;0.0
NaN;1.0;NaN;1.0;0.5;NaN;NaN;0.0
NaN;1.0;NaN;1.0;0.5;NaN;NaN;0.0
NaN;1.0;NaN;1.0;0.5;NaN;NaN;0.0
1.0;NaN;NaN;1.0;1.0;1.0;NaN;0.0
1.0;NaN;NaN;1.0;1.0;1.0;NaN;0.0
1.0;NaN;NaN;1.0;1.0;1.0;NaN;0.0
1.0;NaN;NaN;1.0;1.0;1.0;NaN;0.0
NaN;1.0;NaN;1.0;0.5;NaN;NaN;0.0
1.0;2.0;NaN;3.0;2.0;1.0;NaN;0.0
1.0;1.0;NaN;2.0;1.5;1.0;NaN;0.0
NaN;1.0;NaN;1.0;0.5;NaN;NaN;0.0
NaN;3.0;NaN;3.0;1.5;NaN;NaN;0.0
NaN;2.0;NaN;2.0;1.0;NaN;NaN;0.0
1.0;NaN;NaN;1.0;1.0;1.0;NaN;0.0
2.0;NaN;NaN;2.0;2.0;1.0;NaN;0.0
1.0;NaN;NaN;1.0;1.0;1.0;NaN;0.0
NaN;1.0;NaN;1.0;0.5;NaN;NaN;0.0
NaN;NaN;1.0;1.0;0.4;NaN;0.4;0.0
NaN;1.0;NaN;1.0;0.5;NaN;NaN;0.0
NaN;1.0;NaN;1.0;0.5;NaN;NaN;0.0
1.0;NaN;NaN;1.0;1.0;1.0;NaN;0.0
NaN;1.0;NaN;1.0;0.5;NaN;NaN;0.0
5.0;2.0;NaN;7.0;6.0;1.0;NaN;0.0
1.0;1.0;NaN;2.0;1.5;1.0;NaN;0.0
1.0;1.0;NaN;2.0;1.5;1.0;NaN;0.0
2.0;NaN;NaN;2.0;2.0;1.0;NaN;0.0
1.0;NaN;NaN;1.0;1.0;1.0;NaN;0.0
NaN;2.0;NaN;2.0;1.0;NaN;NaN;0.0
2.0;NaN;NaN;2.0;2.0;1.0;NaN;0.0
NaN;1.0;NaN;1.0;0.5;NaN;NaN;0.0
1.0;1.0;NaN;2.0;1.5;1.0;NaN;0.0
2.0;1.0;NaN;3.0;2.5;1.0;NaN;0.0
4.0;1.0;NaN;5.0;4.5;1.0;NaN;0.0
1.0;3.0;NaN;4.0;2.5;1.0;NaN;0.0
1.0;NaN;NaN;1.0;1.0;1.0;NaN;0.0
2.0;2.0;NaN;4.0;3.0;1.0;NaN;0.0
NaN;1.0;NaN;1.0;0.5144231033742855;NaN;NaN;0.0
1.0;1.0;NaN;2.0;1.5;1.0;NaN;0.0
2.0;NaN;NaN;2.0;2.0;1.0;NaN;0.0
1.0;4.0;NaN;5.0;3.0;1.0;NaN;0.0
1.0;1.0;NaN;2.0;1.5;1.0;NaN;0.0
1.0;1.0;NaN;2.0;1.5;1.0;NaN;0.0
1.0;NaN;NaN;1.0;1.0;1.0;NaN;0.0
2.0;2.0;NaN;4.0;3.0;1.0;NaN;0.0
2.0;2.0;NaN;4.0;3.0;1.0;NaN;0.0
2.0;1.0;NaN;3.0;2.5;1.0;NaN;0.0
1.0;NaN;NaN;1.0;1.0;1.0;NaN;0.0
NaN;2.0;NaN;2.0;1.0;NaN;NaN;0.0
NaN;1.0;NaN;1.0;0.5144231033742855;NaN;NaN;0.0
2.0;1.0;NaN;3.0;2.5;1.0;NaN;0.0
2.0;1.0;NaN;3.0;2.5;1.0;NaN;0.0
1.0;NaN;NaN;1.0;1.0;1.0;NaN;0.0
1.0;NaN;NaN;1.0;1.0;1.0;NaN;0.0
1.0;1.0;NaN;2.0;1.5;1.0;NaN;0.0
1.0;1.0;NaN;2.0;1.5;1.0;NaN;0.0
2.0;NaN;NaN;2.0;2.0;1.0;NaN;0.0
1.0;NaN;NaN;1.0;1.0;1.0;NaN;0.0
1.0;NaN;NaN;1.0;1.0;1.0;NaN;0.0
1.0;1.0;NaN;2.0;1.5;1.0;NaN;0.0
NaN;2.0;NaN;2.0;1.0;NaN;NaN;0.0
NaN;1.0;NaN;1.0;0.5;NaN;NaN;0.0
2.0;NaN;NaN;2.0;2.0;1.0;NaN;0.0
1.0;4.0;NaN;5.0;3.0;1.0;NaN;0.0
3.0;1.0;NaN;4.0;3.5;1.0;NaN;0.0
2.0;NaN;NaN;2.0;2.0;1.0;NaN;0.0
NaN;2.0;NaN;2.0;1.0;NaN;NaN;0.0
NaN;2.0;NaN;2.0;1.0;NaN;NaN;0.0
NaN;1.0;NaN;1.0;0.5;NaN;NaN;2.0
NaN;2.0;NaN;2.0;1.0;NaN;NaN;2.0
1.0;NaN;NaN;1.0;1.0;1.0;NaN;2.0
1.0;NaN;NaN;1.0;1.0;1.0;NaN;2.0
1.0;2.0;NaN;3.0;2.0;1.0;NaN;2.0
2.0;NaN;NaN;2.0;2.0;1.0;NaN;2.0
1.0;2.0;NaN;3.0;2.0;1.0;NaN;2.0
1.0;1.0;NaN;2.0;1.5;1.0;NaN;2.0
NaN;1.0;NaN;1.0;0.5;NaN;NaN;2.0
NaN;1.0;NaN;1.0;0.5;NaN;NaN;2.0
NaN;3.0;NaN;3.0;1.5;NaN;NaN;2.0
5.0;NaN;NaN;5.0;5.0;1.0;NaN;2.0
2.0;NaN;NaN;2.0;2.0;1.0;NaN;2.0
1.0;NaN;NaN;1.0;1.0;1.0;NaN;2.0
NaN;1.0;NaN;1.0;0.5;NaN;NaN;2.0
2.0;NaN;NaN;2.0;2.0;1.0;NaN;2.0
1.0;4.0;NaN;5.0;3.0;1.0;NaN;2.0
3.0;1.0;NaN;4.0;3.5;1.0;NaN;2.0
2.0;1.0;NaN;3.0;2.5;1.0;NaN;2.0
1.0;NaN;NaN;1.0;1.0;1.0;NaN;2.0
1.0;1.0;NaN;2.0;1.5;1.0;NaN;2.0
1.0;1.0;NaN;2.0;1.5;1.0;NaN;2.0
2.0;2.0;NaN;4.0;3.0;1.0;NaN;2.0
NaN;2.0;NaN;2.0;1.0;NaN;NaN;2.0
NaN;2.0;NaN;2.0;1.0;NaN;NaN;2.0
1.0;NaN;NaN;1.0;1.0;1.0;NaN;2.0
NaN;2.0;NaN;2.0;1.0;NaN;NaN;2.0
NaN;1.0;NaN;1.0;0.5144231033742855;NaN;NaN;2.0
2.0;1.0;NaN;3.0;2.5;1.0;NaN;2.0
1.0;NaN;NaN;1.0;1.0;1.0;NaN;2.0
4.0;1.0;NaN;5.0;4.5;1.0;NaN;2.0
3.0;2.0;NaN;5.0;4.0;1.0;NaN;2.0
3.0;2.0;NaN;5.0;4.0;1.0;NaN;2.0
NaN;1.0;NaN;1.0;0.5;NaN;NaN;2.0
2.0;NaN;NaN;2.0;2.0;1.0;NaN;2.0
2.0;2.0;NaN;4.0;3.0;1.0;NaN;2.0
1.0;NaN;NaN;1.0;1.0;1.0;NaN;2.0
1.0;2.0;NaN;3.0;2.0;1.0;NaN;2.0
1.0;NaN;NaN;1.0;1.0;1.0;NaN;2.0
NaN;1.0;NaN;1.0;0.5;NaN;NaN;2.0
NaN;3.0;NaN;3.0;1.5432693101228567;NaN;NaN;2.0
NaN;2.0;NaN;2.0;1.0;NaN;NaN;2.0
NaN;2.0;NaN;2.0;1.0;NaN;NaN;2.0
1.0;NaN;NaN;1.0;1.0;1.0;NaN;2.0
NaN;1.0;NaN;1.0;0.5;NaN;NaN;2.0
NaN;1.0;NaN;1.0;0.5;NaN;NaN;2.0
NaN;2.0;NaN;2.0;1.0;NaN;NaN;2.0
1.0;NaN;NaN;1.0;1.0;1.0;NaN;2.0
2.0;1.0;NaN;3.0;2.5;1.0;NaN;2.0
NaN;1.0;NaN;1.0;0.5;NaN;NaN;2.0
1.0;NaN;NaN;1.0;1.0;1.0;NaN;2.0
4.0;NaN;NaN;4.0;4.0;1.0;NaN;2.0
2.0;NaN;NaN;2.0;2.0;1.0;NaN;2.0
2.0;NaN;NaN;2.0;2.0;1.0;NaN;2.0
2.0;NaN;NaN;2.0;2.0;1.0;NaN;2.0
2.0;1.0;NaN;3.0;2.5;1.0;NaN;2.0
1.0;NaN;NaN;1.0;1.0;1.0;NaN;2.0
1.0;2.0;NaN;3.0;2.0;1.0;NaN;2.0
NaN;1.0;NaN;1.0;0.5144231033742855;NaN;NaN;2.0
NaN;2.0;NaN;2.0;1.0;NaN;NaN;2.0
NaN;3.0;NaN;3.0;1.5;NaN;NaN;2.0
2.0;1.0;NaN;3.0;2.5;1.0;NaN;2.0
NaN;3.0;NaN;3.0;1.5;NaN;NaN;2.0
1.0;NaN;NaN;1.0;1.0;1.0;NaN;2.0
2.0;3.0;NaN;5.0;3.5;1.0;NaN;2.0
4.0;1.0;NaN;5.0;4.5;1.0;NaN;2.0
4.0;1.0;NaN;5.0;4.5;1.0;NaN;2.0
NaN;1.0;NaN;1.0;0.5;NaN;NaN;2.0
1.0;1.0;NaN;2.0;1.5;1.0;NaN;2.0
NaN;1.0;NaN;1.0;0.5;NaN;NaN;2.0
NaN;2.0;NaN;2.0;1.0;NaN;NaN;2.0
NaN;1.0;NaN;1.0;0.5;NaN;NaN;2.0
2.0;NaN;NaN;2.0;2.0;1.0;NaN;2.0
1.0;NaN;NaN;1.0;0.6;0.6;NaN;2.0
2.0;2.0;NaN;4.0;3.0;1.0;NaN;2.0
2.0;NaN;NaN;2.0;2.0;1.0;NaN;2.0
1.0;NaN;NaN;1.0;1.0;1.0;NaN;2.0
NaN;1.0;NaN;1.0;0.5;NaN;NaN;2.0
NaN;1.0;NaN;1.0;0.5;NaN;NaN;2.0
3.0;NaN;NaN;3.0;3.0;1.0;NaN;2.0
1.0;3.0;NaN;4.0;2.5;1.0;NaN;2.0
1.0;NaN;NaN;1.0;1.0;1.0;NaN;2.0
1.0;2.0;NaN;3.0;2.0;1.0;NaN;2.0
NaN;1.0;NaN;1.0;0.5;NaN;NaN;2.0
1.0;NaN;NaN;1.0;1.0;1.0;NaN;2.0
NaN;NaN;2.0;2.0;0.7;NaN;0.3;2.0
3.0;1.0;NaN;4.0;3.5;1.0;NaN;2.0
1.0;NaN;NaN;1.0;1.0;1.0;NaN;2.0
2.0;3.0;NaN;5.0;3.5;1.0;NaN;2.0
3.0;NaN;NaN;3.0;3.0;1.0;NaN;2.0
2.0;1.0;NaN;3.0;2.5;1.0;NaN;2.0
NaN;2.0;NaN;2.0;1.0;NaN;NaN;2.0
NaN;1.0;NaN;1.0;0.5;NaN;NaN;2.0
2.0;1.0;NaN;3.0;2.5;1.0;NaN;1.0
2.0;1.0;NaN;3.0;2.5;1.0;NaN;1.0
1.0;1.0;NaN;2.0;1.5;1.0;NaN;1.0
1.0;3.0;NaN;4.0;2.5;1.0;NaN;1.0
1.0;NaN;NaN;1.0;1.0;1.0;NaN;1.0
2.0;1.0;NaN;3.0;2.5;1.0;NaN;1.0
1.0;1.0;NaN;2.0;1.5;1.0;NaN;1.0
NaN;NaN;1.0;1.0;0.4;NaN;0.4;1.0
2.0;1.0;NaN;3.0;2.5;1.0;NaN;1.0
NaN;1.0;NaN;1.0;0.5;NaN;NaN;1.0
NaN;2.0;NaN;2.0;1.0;NaN;NaN;1.0
NaN;NaN;1.0;1.0;0.4;NaN;0.4;1.0
NaN;1.0;NaN;1.0;0.5;NaN;NaN;1.0
1.0;2.0;NaN;3.0;2.0;1.0;NaN;1.0
2.0;NaN;NaN;2.0;2.0;1.0;NaN;1.0
NaN;1.0;NaN;1.0;0.5;NaN;NaN;1.0
2.0;4.0;NaN;6.0;4.0;1.0;NaN;1.0
NaN;1.0;NaN;1.0;0.5;NaN;NaN;1.0
1.0;NaN;NaN;1.0;1.0;1.0;NaN;1.0
NaN;1.0;NaN;1.0;0.5;NaN;NaN;1.0
1.0;NaN;NaN;1.0;1.0;1.0;NaN;1.0
NaN;1.0;NaN;1.0;0.5;NaN;NaN;1.0
NaN;4.0;NaN;4.0;2.0;NaN;NaN;1.0
1.0;NaN;NaN;1.0;1.0;1.0;NaN;1.0
NaN;1.0;NaN;1.0;0.5;NaN;NaN;1.0
1.0;2.0;NaN;3.0;2.0;1.0;NaN;1.0
1.0;NaN;NaN;1.0;1.0;1.0;NaN;1.0
NaN;3.0;NaN;3.0;1.5;NaN;NaN;1.0
4.0;1.0;NaN;5.0;4.5;1.0;NaN;1.0
1.0;NaN;NaN;1.0;1.0;1.0;NaN;1.0
1.0;NaN;NaN;1.0;1.0;1.0;NaN;1.0
NaN;1.0;NaN;1.0;0.5;NaN;NaN;1.0
NaN;1.0;NaN;1.0;0.5;NaN;NaN;1.0
1.0;NaN;NaN;1.0;1.0;1.0;NaN;1.0
1.0;NaN;NaN;1.0;1.0;1.0;NaN;1.0
NaN;1.0;NaN;1.0;0.5144231033742855;NaN;NaN;1.0
NaN;1.0;NaN;1.0;0.5;NaN;NaN;1.0
1.0;NaN;NaN;1.0;1.0;1.0;NaN;0.0
1.0;2.0;NaN;3.0;2.0;1.0;NaN;0.0
3.0;NaN;NaN;3.0;3.0;1.0;NaN;0.0
1.0;NaN;NaN;1.0;1.0;1.0;NaN;0.0
NaN;1.0;NaN;1.0;0.5;NaN;NaN;0.0
NaN;1.0;NaN;1.0;0.5;NaN;NaN;0.0
NaN;NaN;1.0;1.0;0.3;NaN;0.3;0.0
1.0;NaN;NaN;1.0;1.0;1.0;NaN;0.0
1.0;NaN;NaN;1.0;1.0;1.0;NaN;0.0
NaN;1.0;NaN;1.0;0.5;NaN;NaN;0.0
1.0;NaN;NaN;1.0;1.0;1.0;NaN;0.0
2.0;NaN;NaN;2.0;2.0;1.0;NaN;0.0
1.0;NaN;NaN;1.0;1.0;1.0;NaN;0.0
1.0;1.0;NaN;2.0;1.5;1.0;NaN;0.0
2.0;NaN;NaN;2.0;2.0;1.0;NaN;0.0
1.0;NaN;NaN;1.0;1.0;1.0;NaN;0.0
1.0;NaN;NaN;1.0;1.0;1.0;NaN;0.0
1.0;NaN;NaN;1.0;1.0;1.0;NaN;0.0
1.0;1.0;NaN;2.0;1.5;1.0;NaN;0.0
1.0;NaN;NaN;1.0;1.0;1.0;NaN;0.0
1.0;1.0;NaN;2.0;1.5;1.0;NaN;0.0
2.0;NaN;NaN;2.0;2.0;1.0;NaN;0.0
NaN;1.0;NaN;1.0;0.5;NaN;NaN;0.0
1.0;1.0;NaN;2.0;1.5;1.0;NaN;0.0
1.0;1.0;NaN;2.0;1.5;1.0;NaN;0.0
1.0;NaN;NaN;1.0;1.0;1.0;NaN;0.0
2.0;1.0;NaN;3.0;2.5;1.0;NaN;0.0
3.0;1.0;NaN;4.0;3.5;1.0;NaN;0.0
1.0;1.0;NaN;2.0;1.5;1.0;NaN;0.0
NaN;2.0;NaN;2.0;1.0;NaN;NaN;0.0
NaN;1.0;NaN;1.0;0.5;NaN;NaN;0.0
2.0;NaN;NaN;2.0;2.0;1.0;NaN;0.0
1.0;NaN;NaN;1.0;1.0;1.0;NaN;0.0
2.0;NaN;NaN;2.0;2.0;1.0;NaN;0.0
2.0;NaN;NaN;2.0;2.0;1.0;NaN;0.0
1.0;4.0;NaN;5.0;3.0;1.0;NaN;0.0
1.0;3.0;NaN;4.0;2.5;1.0;NaN;0.0
1.0;NaN;NaN;1.0;1.0;1.0;NaN;0.0
NaN;1.0;NaN;1.0;0.5;NaN;NaN;0.0
NaN;1.0;NaN;1.0;0.5;NaN;NaN;0.0
1.0;NaN;NaN;1.0;1.0;1.0;NaN;0.0
NaN;1.0;NaN;1.0;0.5;NaN;NaN;0.0
1.0;NaN;NaN;1.0;1.0;1.0;NaN;0.0
3.0;1.0;NaN;4.0;3.5;1.0;NaN;0.0
NaN;2.0;NaN;2.0;1.0;NaN;NaN;0.0
5.0;1.0;NaN;6.0;5.5;1.0;NaN;0.0
1.0;1.0;NaN;2.0;1.5;1.0;NaN;0.0
1.0;2.0;NaN;3.0;2.0;1.0;NaN;0.0
NaN;1.0;NaN;1.0;0.5;NaN;NaN;0.0
NaN;1.0;NaN;1.0;0.5;NaN;NaN;0.0
3.0;1.0;NaN;4.0;3.5;1.0;NaN;0.0
1.0;NaN;NaN;1.0;1.0;1.0;NaN;0.0
1.0;NaN;NaN;1.0;1.0;1.0;NaN;0.0
1.0;NaN;NaN;1.0;1.0;1.0;NaN;0.0
1.0;1.0;NaN;2.0;1.5;1.0;NaN;0.0
1.0;1.0;NaN;2.0;1.5;1.0;NaN;0.0
2.0;NaN;NaN;2.0;2.0;1.0;NaN;0.0
NaN;1.0;NaN;1.0;0.5;NaN;NaN;0.0
NaN;1.0;NaN;1.0;0.5;NaN;NaN;0.0
1.0;1.0;NaN;2.0;1.5;1.0;NaN;0.0
NaN;1.0;NaN;1.0;0.5;NaN;NaN;0.0
2.0;NaN;NaN;2.0;2.0;1.0;NaN;0.0
1.0;NaN;NaN;1.0;1.0;1.0;NaN;0.0
1.0;1.0;NaN;2.0;1.5;1.0;NaN;0.0
NaN;2.0;NaN;2.0;1.0;NaN;NaN;0.0
2.0;1.0;NaN;3.0;2.5;1.0;NaN;0.0
NaN;1.0;NaN;1.0;0.5;NaN;NaN;0.0
2.0;2.0;NaN;4.0;3.0;1.0;NaN;0.0
NaN;2.0;NaN;2.0;1.0;NaN;NaN;0.0
2.0;1.0;NaN;3.0;2.5;1.0;NaN;0.0
NaN;2.0;NaN;2.0;1.0;NaN;NaN;0.0
NaN;1.0;NaN;1.0;0.5;NaN;NaN;0.0
NaN;2.0;NaN;2.0;1.0;NaN;NaN;0.0
NaN;1.0;NaN;1.0;0.5144231033742855;NaN;NaN;0.0
2.0;NaN;NaN;2.0;2.0;1.0;NaN;0.0
1.0;NaN;NaN;1.0;1.0;1.0;NaN;0.0
1.0;NaN;NaN;1.0;1.0;1.0;NaN;0.0
1.0;1.0;NaN;2.0;1.5;1.0;NaN;0.0
NaN;1.0;NaN;1.0;0.5;NaN;NaN;0.0
1.0;1.0;NaN;2.0;1.5;1.0;NaN;0.0
NaN;1.0;NaN;1.0;0.5;NaN;NaN;0.0
NaN;NaN;1.0;1.0;0.4;NaN;0.4;0.0
NaN;3.0;NaN;3.0;1.5;NaN;NaN;0.0
1.0;NaN;NaN;1.0;0.7;0.7;NaN;0.0
1.0;1.0;NaN;2.0;1.5;1.0;NaN;0.0
1.0;2.0;NaN;3.0;2.0;1.0;NaN;0.0
1.0;3.0;NaN;4.0;2.5;1.0;NaN;0.0
1.0;1.0;NaN;2.0;1.5;1.0;NaN;0.0
NaN;1.0;NaN;1.0;0.5;NaN;NaN;0.0
1.0;1.0;NaN;2.0;1.5;1.0;NaN;0.0
1.0;NaN;NaN;1.0;1.0;1.0;NaN;0.0
NaN;1.0;NaN;1.0;0.5;NaN;NaN;0.0
2.0;NaN;NaN;2.0;2.0;1.0;NaN;0.0
2.0;NaN;NaN;2.0;2.0;1.0;NaN;0.0
1.0;1.0;NaN;2.0;1.5;1.0;NaN;0.0
NaN;1.0;NaN;1.0;0.5;NaN;NaN;0.0
1.0;NaN;NaN;1.0;1.0;1.0;NaN;0.0
1.0;NaN;NaN;1.0;1.0;1.0;NaN;0.0
6.0;2.0;NaN;8.0;7.0;1.0;NaN;0.0
1.0;NaN;NaN;1.0;1.0;1.0;NaN;0.0
2.0;1.0;NaN;3.0;2.5;1.0;NaN;0.0
2.0;4.0;NaN;6.0;4.0;1.0;NaN;0.0
1.0;3.0;NaN;4.0;2.5;1.0;NaN;0.0
1.0;3.0;NaN;4.0;2.5;1.0;NaN;0.0
1.0;NaN;NaN;1.0;1.0;1.0;NaN;0.0
1.0;1.0;NaN;2.0;1.5;1.0;NaN;0.0
NaN;3.0;NaN;3.0;1.5;NaN;NaN;0.0
1.0;1.0;NaN;2.0;1.5;1.0;NaN;0.0
NaN;1.0;NaN;1.0;0.5;NaN;NaN;0.0
NaN;2.0;NaN;2.0;1.0;NaN;NaN;0.0
5.0;NaN;NaN;5.0;5.0;1.0;NaN;0.0
NaN;2.0;NaN;2.0;1.0;NaN;NaN;0.0
1.0;1.0;NaN;2.0;1.5;1.0;NaN;0.0
1.0;1.0;NaN;2.0;1.5;1.0;NaN;0.0
1.0;2.0;NaN;3.0;2.0;1.0;NaN;0.0
1.0;2.0;NaN;3.0;2.0;1.0;NaN;0.0
NaN;1.0;NaN;1.0;0.5;NaN;NaN;0.0
3.0;NaN;NaN;3.0;3.0;1.0;NaN;0.0
1.0;3.0;NaN;4.0;2.5;1.0;NaN;0.0
NaN;4.0;NaN;4.0;2.057692413497142;NaN;NaN;0.0
NaN;1.0;NaN;1.0;0.5;NaN;NaN;0.0
1.0;1.0;NaN;2.0;1.5;1.0;NaN;0.0
NaN;1.0;NaN;1.0;0.5;NaN;NaN;0.0
NaN;1.0;NaN;1.0;0.5;NaN;NaN;0.0
NaN;1.0;NaN;1.0;0.5;NaN;NaN;0.0
NaN;1.0;NaN;1.0;0.5;NaN;NaN;0.0
NaN;1.0;NaN;1.0;0.5;NaN;NaN;0.0
NaN;2.0;NaN;2.0;1.0;NaN;NaN;0.0
1.0;NaN;NaN;1.0;1.0;1.0;NaN;0.0
1.0;NaN;NaN;1.0;1.0;1.0;NaN;0.0
1.0;NaN;NaN;1.0;1.0;1.0;NaN;0.0
NaN;2.0;NaN;2.0;1.0;NaN;NaN;0.0
1.0;NaN;NaN;1.0;1.0;1.0;NaN;0.0
2.0;NaN;NaN;2.0;2.0;1.0;NaN;0.0
NaN;NaN;1.0;1.0;0.4;NaN;0.4;0.0
3.0;1.0;NaN;4.0;3.5;1.0;NaN;0.0
1.0;NaN;NaN;1.0;1.0;1.0;NaN;0.0
1.0;1.0;NaN;2.0;1.5;1.0;NaN;0.0
1.0;NaN;NaN;1.0;1.0;1.0;NaN;0.0
1.0;NaN;NaN;1.0;1.0;1.0;NaN;0.0
2.0;NaN;NaN;2.0;2.0;1.0;NaN;0.0
1.0;NaN;NaN;1.0;1.0;1.0;NaN;0.0
NaN;1.0;NaN;1.0;0.5;NaN;NaN;0.0
NaN;2.0;NaN;2.0;1.0;NaN;NaN;0.0
NaN;1.0;NaN;1.0;0.5;NaN;NaN;0.0
NaN;1.0;NaN;1.0;0.5144231033742855;NaN;NaN;0.0
1.0;NaN;NaN;1.0;1.0;1.0;NaN;0.0
NaN;1.0;NaN;1.0;0.5;NaN;NaN;0.0
2.0;NaN;NaN;2.0;2.0;1.0;NaN;0.0
2.0;NaN;NaN;2.0;2.0;1.0;NaN;0.0
1.0;1.0;NaN;2.0;1.5;1.0;NaN;0.0
2.0;NaN;NaN;2.0;2.0;1.0;NaN;0.0
1.0;1.0;NaN;2.0;1.5;1.0;NaN;0.0
1.0;NaN;NaN;1.0;1.0;1.0;NaN;0.0
1.0;NaN;NaN;1.0;1.0;1.0;NaN;0.0
1.0;NaN;NaN;1.0;1.0;1.0;NaN;0.0
1.0;NaN;NaN;1.0;1.0;1.0;NaN;0.0
1.0;1.0;NaN;2.0;1.5;1.0;NaN;0.0
2.0;1.0;NaN;3.0;2.5;1.0;NaN;0.0
NaN;1.0;NaN;1.0;0.5;NaN;NaN;0.0
2.0;1.0;NaN;3.0;2.5;1.0;NaN;0.0
1.0;1.0;NaN;2.0;1.5;1.0;NaN;0.0
1.0;1.0;NaN;2.0;1.5;1.0;NaN;0.0
NaN;1.0;NaN;1.0;0.5;NaN;NaN;0.0
1.0;NaN;NaN;1.0;1.0;1.0;NaN;0.0
NaN;1.0;NaN;1.0;0.5;NaN;NaN;0.0
NaN;5.0;NaN;5.0;2.5;NaN;NaN;0.0
NaN;3.0;NaN;3.0;1.5;NaN;NaN;0.0
1.0;1.0;NaN;2.0;1.5;1.0;NaN;0.0
NaN;1.0;NaN;1.0;0.5;NaN;NaN;0.0
2.0;NaN;NaN;2.0;2.0;1.0;NaN;0.0
1.0;NaN;NaN;1.0;1.0;1.0;NaN;0.0
NaN;NaN;1.0;1.0;0.4;NaN;0.4;0.0
NaN;NaN;1.0;1.0;0.4;NaN;0.4;0.0
NaN;1.0;NaN;1.0;0.5;NaN;NaN;0.0
1.0;2.0;NaN;3.0;2.0;1.0;NaN;0.0
1.0;NaN;NaN;1.0;1.0;1.0;NaN;0.0
3.0;1.0;NaN;4.0;3.5;1.0;NaN;0.0
1.0;NaN;NaN;1.0;1.0;1.0;NaN;0.0
4.0;NaN;NaN;4.0;4.0;1.0;NaN;0.0
3.0;NaN;NaN;3.0;3.0;1.0;NaN;0.0
1.0;1.0;NaN;2.0;1.5;1.0;NaN;0.0
2.0;1.0;NaN;3.0;2.5;1.0;NaN;0.0
1.0;2.0;NaN;3.0;2.0;1.0;NaN;0.0
2.0;1.0;NaN;3.0;2.5;1.0;NaN;0.0
2.0;1.0;NaN;3.0;2.5;1.0;NaN;0.0
NaN;NaN;1.0;1.0;0.4;NaN;0.4;0.0
1.0;2.0;NaN;3.0;2.0;1.0;NaN;0.0
1.0;1.0;NaN;2.0;1.5;1.0;NaN;0.0
1.0;2.0;NaN;3.0;2.0;1.0;NaN;0.0
1.0;2.0;NaN;3.0;2.0;1.0;NaN;0.0
1.0;2.0;NaN;3.0;2.0;1.0;NaN;0.0
NaN;3.0;NaN;3.0;1.5;NaN;NaN;0.0
4.0;NaN;NaN;4.0;4.0;1.0;NaN;0.0
1.0;NaN;NaN;1.0;1.0;1.0;NaN;0.0
NaN;1.0;NaN;1.0;0.5;NaN;NaN;0.0
NaN;1.0;NaN;1.0;0.5;NaN;NaN;0.0
NaN;1.0;NaN;1.0;0.5;NaN;NaN;0.0
1.0;4.0;NaN;5.0;3.0;1.0;NaN;0.0
1.0;NaN;NaN;1.0;1.0;1.0;NaN;0.0
NaN;1.0;NaN;1.0;0.5144231033742855;NaN;NaN;1.0
1.0;NaN;NaN;1.0;1.0;1.0;NaN;1.0
1.0;NaN;NaN;1.0;1.0;1.0;NaN;1.0
1.0;1.0;NaN;2.0;1.5;1.0;NaN;1.0
1.0;NaN;NaN;1.0;1.0;1.0;NaN;1.0
1.0;NaN;NaN;1.0;1.0;1.0;NaN;1.0
1.0;1.0;NaN;2.0;1.5;1.0;NaN;1.0
NaN;1.0;NaN;1.0;0.5144231033742855;NaN;NaN;1.0
1.0;NaN;NaN;1.0;1.0;1.0;NaN;1.0
1.0;NaN;NaN;1.0;1.0;1.0;NaN;1.0
1.0;1.0;NaN;2.0;1.5;1.0;NaN;1.0
1.0;NaN;NaN;1.0;1.0;1.0;NaN;1.0
NaN;1.0;NaN;1.0;0.5;NaN;NaN;0.0
2.0;2.0;NaN;4.0;3.0;1.0;NaN;0.0
1.0;NaN;NaN;1.0;1.0;1.0;NaN;0.0
2.0;1.0;NaN;3.0;2.5;1.0;NaN;0.0
4.0;1.0;NaN;5.0;4.5;1.0;NaN;0.0
NaN;2.0;NaN;2.0;1.0;NaN;NaN;0.0
1.0;NaN;NaN;1.0;1.0;1.0;NaN;0.0
2.0;NaN;NaN;2.0;2.0;1.0;NaN;0.0
1.0;NaN;NaN;1.0;1.0;1.0;NaN;0.0
1.0;1.0;NaN;2.0;1.5;1.0;NaN;0.0
2.0;NaN;NaN;2.0;2.0;1.0;NaN;0.0
NaN;1.0;NaN;1.0;0.5;NaN;NaN;0.0
NaN;1.0;NaN;1.0;0.5;NaN;NaN;0.0
1.0;NaN;NaN;1.0;1.0;1.0;NaN;0.0
1.0;NaN;NaN;1.0;1.0;1.0;NaN;0.0
1.0;NaN;NaN;1.0;1.0;1.0;NaN;0.0
1.0;NaN;NaN;1.0;1.0;1.0;NaN;0.0
1.0;NaN;NaN;1.0;1.0;1.0;NaN;0.0
1.0;NaN;NaN;1.0;1.0;1.0;NaN;0.0
4.0;NaN;NaN;4.0;4.0;1.0;NaN;0.0
1.0;2.0;NaN;3.0;2.0;1.0;NaN;0.0
NaN;1.0;NaN;1.0;0.5144231033742855;NaN;NaN;0.0
2.0;1.0;NaN;3.0;2.5;1.0;NaN;0.0
2.0;1.0;NaN;3.0;2.5;1.0;NaN;0.0
2.0;2.0;NaN;4.0;3.0;1.0;NaN;0.0
1.0;NaN;NaN;1.0;1.0;1.0;NaN;0.0
3.0;NaN;NaN;3.0;3.0;1.0;NaN;0.0
NaN;2.0;NaN;2.0;1.0;NaN;NaN;0.0
NaN;1.0;NaN;1.0;0.5;NaN;NaN;0.0
1.0;2.0;NaN;3.0;2.0;1.0;NaN;0.0
1.0;NaN;NaN;1.0;1.0;1.0;NaN;0.0
1.0;1.0;NaN;2.0;1.5;1.0;NaN;0.0
1.0;NaN;NaN;1.0;1.0;1.0;NaN;0.0
1.0;NaN;NaN;1.0;1.0;1.0;NaN;0.0
NaN;1.0;NaN;1.0;0.5;NaN;NaN;0.0
3.0;NaN;NaN;3.0;3.0;1.0;NaN;0.0
NaN;1.0;NaN;1.0;0.5;NaN;NaN;0.0
NaN;3.0;NaN;3.0;1.5;NaN;NaN;0.0
1.0;NaN;NaN;1.0;1.0;1.0;NaN;0.0
1.0;2.0;NaN;3.0;2.0;1.0;NaN;0.0
4.0;2.0;NaN;6.0;5.0;1.0;NaN;0.0
NaN;1.0;NaN;1.0;0.5;NaN;NaN;0.0
NaN;1.0;NaN;1.0;0.5;NaN;NaN;0.0
NaN;1.0;NaN;1.0;0.5;NaN;NaN;0.0
NaN;1.0;NaN;1.0;0.5;NaN;NaN;0.0
1.0;NaN;NaN;1.0;1.0;1.0;NaN;0.0
2.0;1.0;NaN;3.0;2.5;1.0;NaN;0.0
2.0;NaN;NaN;2.0;2.0;1.0;NaN;0.0
1.0;NaN;NaN;1.0;1.0;1.0;NaN;0.0
1.0;1.0;NaN;2.0;1.5;1.0;NaN;0.0
1.0;NaN;NaN;1.0;1.0;1.0;NaN;0.0
1.0;2.0;NaN;3.0;2.0;1.0;NaN;0.0
NaN;1.0;NaN;1.0;0.5;NaN;NaN;0.0
NaN;1.0;NaN;1.0;0.5144231033742855;NaN;NaN;0.0
2.0;1.0;NaN;3.0;2.5;1.0;NaN;0.0
NaN;1.0;NaN;1.0;0.5;NaN;NaN;0.0
NaN;1.0;NaN;1.0;0.5144231033742855;NaN;NaN;0.0
NaN;2.0;NaN;2.0;1.0;NaN;NaN;0.0
NaN;1.0;NaN;1.0;0.5;NaN;NaN;0.0
NaN;NaN;1.0;1.0;0.4;NaN;0.4;0.0
NaN;1.0;NaN;1.0;0.5;NaN;NaN;0.0
1.0;1.0;NaN;2.0;1.5;1.0;NaN;0.0
2.0;1.0;NaN;3.0;2.5;1.0;NaN;0.0
2.0;1.0;NaN;3.0;2.5;1.0;NaN;0.0
3.0;1.0;NaN;4.0;3.5;1.0;NaN;0.0
NaN;1.0;NaN;1.0;0.5;NaN;NaN;0.0
3.0;NaN;NaN;3.0;3.0;1.0;NaN;0.0
1.0;NaN;NaN;1.0;1.0;1.0;NaN;0.0
NaN;1.0;NaN;1.0;0.5;NaN;NaN;0.0
4.0;NaN;NaN;4.0;4.0;1.0;NaN;0.0
1.0;NaN;NaN;1.0;1.0;1.0;NaN;0.0
NaN;1.0;NaN;1.0;0.5;NaN;NaN;0.0
NaN;1.0;NaN;1.0;0.5;NaN;NaN;0.0
NaN;1.0;NaN;1.0;0.5;NaN;NaN;0.0
1.0;1.0;NaN;2.0;1.5;1.0;NaN;0.0
1.0;NaN;NaN;1.0;1.0;1.0;NaN;0.0
2.0;NaN;NaN;2.0;2.0;1.0;NaN;0.0
NaN;1.0;NaN;1.0;0.5;NaN;NaN;0.0
2.0;NaN;NaN;2.0;2.0;1.0;NaN;0.0
NaN;1.0;NaN;1.0;0.5;NaN;NaN;0.0
NaN;2.0;NaN;2.0;1.0;NaN;NaN;0.0
NaN;2.0;NaN;2.0;1.0;NaN;NaN;0.0
NaN;1.0;NaN;1.0;0.5;NaN;NaN;0.0
1.0;1.0;NaN;2.0;1.5;1.0;NaN;0.0
2.0;1.0;NaN;3.0;2.5;1.0;NaN;0.0
NaN;1.0;NaN;1.0;0.5144231033742855;NaN;NaN;0.0
NaN;1.0;NaN;1.0;0.5;NaN;NaN;0.0
1.0;NaN;NaN;1.0;1.0;1.0;NaN;0.0
1.0;NaN;NaN;1.0;1.0;1.0;NaN;0.0
1.0;NaN;NaN;1.0;1.0;1.0;NaN;0.0
2.0;NaN;NaN;2.0;2.0;1.0;NaN;0.0
1.0;NaN;NaN;1.0;1.0;1.0;NaN;0.0
1.0;NaN;NaN;1.0;1.0;1.0;NaN;0.0
2.0;NaN;NaN;2.0;2.0;1.0;NaN;0.0
1.0;1.0;NaN;2.0;1.5;1.0;NaN;0.0
1.0;NaN;NaN;1.0;1.0;1.0;NaN;0.0
NaN;2.0;NaN;2.0;1.0;NaN;NaN;0.0
3.0;NaN;NaN;3.0;2.0999999999999996;0.7;NaN;0.0
NaN;1.0;NaN;1.0;0.5144231033742855;NaN;NaN;0.0
1.0;1.0;NaN;2.0;1.5;1.0;NaN;0.0
NaN;1.0;NaN;1.0;0.5144231033742855;NaN;NaN;0.0
3.0;NaN;NaN;3.0;3.0;1.0;NaN;0.0
NaN;1.0;NaN;1.0;0.5144231033742855;NaN;NaN;0.0
NaN;1.0;NaN;1.0;0.5;NaN;NaN;0.0
1.0;NaN;NaN;1.0;1.0;1.0;NaN;0.0
1.0;NaN;NaN;1.0;1.0;1.0;NaN;0.0
1.0;NaN;NaN;1.0;1.0;1.0;NaN;0.0
1.0;NaN;NaN;1.0;1.0;1.0;NaN;0.0
3.0;NaN;NaN;3.0;3.0;1.0;NaN;0.0
NaN;4.0;NaN;4.0;2.0;NaN;NaN;0.0
NaN;1.0;NaN;1.0;0.5;NaN;NaN;0.0
1.0;NaN;NaN;1.0;1.0;1.0;NaN;0.0
NaN;1.0;NaN;1.0;0.5;NaN;NaN;0.0
1.0;NaN;NaN;1.0;1.0;1.0;NaN;0.0
1.0;1.0;NaN;2.0;1.5;1.0;NaN;0.0
1.0;NaN;NaN;1.0;1.0;1.0;NaN;0.0
2.0;NaN;NaN;2.0;2.0;1.0;NaN;0.0
1.0;NaN;NaN;1.0;1.0;1.0;NaN;0.0
1.0;NaN;NaN;1.0;1.0;1.0;NaN;0.0
NaN;1.0;NaN;1.0;0.5144231033742855;NaN;NaN;0.0
3.0;1.0;NaN;4.0;3.5;1.0;NaN;0.0
1.0;1.0;NaN;2.0;1.5;1.0;NaN;0.0
1.0;NaN;NaN;1.0;1.0;1.0;NaN;0.0
1.0;NaN;NaN;1.0;1.0;1.0;NaN;0.0
NaN;1.0;NaN;1.0;0.5;NaN;NaN;0.0
1.0;1.0;NaN;2.0;1.5;1.0;NaN;0.0
2.0;2.0;NaN;4.0;3.0;1.0;NaN;0.0
1.0;NaN;NaN;1.0;1.0;1.0;NaN;0.0
1.0;NaN;NaN;1.0;1.0;1.0;NaN;0.0
2.0;2.0;NaN;4.0;3.0;1.0;NaN;0.0
1.0;NaN;NaN;1.0;1.0;1.0;NaN;0.0
1.0;1.0;NaN;2.0;1.5;1.0;NaN;0.0
NaN;1.0;NaN;1.0;0.5;NaN;NaN;0.0
1.0;NaN;NaN;1.0;1.0;1.0;NaN;0.0
1.0;NaN;NaN;1.0;1.0;1.0;NaN;0.0
1.0;NaN;NaN;1.0;1.0;1.0;NaN;0.0
2.0;NaN;NaN;2.0;2.0;1.0;NaN;0.0
NaN;1.0;NaN;1.0;0.5;NaN;NaN;0.0
1.0;NaN;NaN;1.0;1.0;1.0;NaN;0.0
1.0;1.0;NaN;2.0;1.5;1.0;NaN;0.0
1.0;NaN;NaN;1.0;1.0;1.0;NaN;0.0
NaN;1.0;NaN;1.0;0.5;NaN;NaN;0.0
1.0;3.0;NaN;4.0;2.5;1.0;NaN;0.0
1.0;NaN;NaN;1.0;1.0;1.0;NaN;0.0
1.0;NaN;NaN;1.0;1.0;1.0;NaN;0.0
NaN;1.0;NaN;1.0;0.5;NaN;NaN;0.0
2.0;5.0;NaN;7.0;4.5;1.0;NaN;0.0
NaN;1.0;NaN;1.0;0.5;NaN;NaN;0.0
NaN;2.0;NaN;2.0;1.028846206748571;NaN;NaN;0.0
NaN;1.0;NaN;1.0;0.5144231033742855;NaN;NaN;0.0
1.0;1.0;NaN;2.0;1.5;1.0;NaN;0.0
1.0;NaN;NaN;1.0;1.0;1.0;NaN;0.0
1.0;NaN;NaN;1.0;1.0;1.0;NaN;0.0
NaN;1.0;NaN;1.0;0.5;NaN;NaN;0.0
1.0;NaN;1.0;2.0;1.1;0.7;0.4;0.0
2.0;1.0;NaN;3.0;2.5;1.0;NaN;0.0
1.0;NaN;NaN;1.0;1.0;1.0;NaN;0.0
NaN;3.0;NaN;3.0;1.5;NaN;NaN;0.0
1.0;1.0;NaN;2.0;1.5;1.0;NaN;0.0
1.0;4.0;NaN;5.0;3.0;1.0;NaN;0.0
1.0;NaN;NaN;1.0;1.0;1.0;NaN;0.0
1.0;1.0;NaN;2.0;1.5;1.0;NaN;0.0
NaN;1.0;NaN;1.0;0.5;NaN;NaN;0.0
NaN;1.0;NaN;1.0;0.5;NaN;NaN;0.0
NaN;1.0;NaN;1.0;0.5;NaN;NaN;0.0
NaN;1.0;NaN;1.0;0.5;NaN;NaN;0.0
NaN;3.0;NaN;3.0;1.5;NaN;NaN;0.0
2.0;NaN;NaN;2.0;2.0;1.0;NaN;0.0
NaN;3.0;NaN;3.0;1.5;NaN;NaN;0.0
1.0;NaN;NaN;1.0;1.0;1.0;NaN;0.0
NaN;3.0;NaN;3.0;1.5;NaN;NaN;0.0
4.0;NaN;NaN;4.0;4.0;1.0;NaN;0.0
NaN;3.0;NaN;3.0;1.5;NaN;NaN;0.0
2.0;1.0;NaN;3.0;2.5;1.0;NaN;0.0
NaN;2.0;NaN;2.0;1.0;NaN;NaN;0.0
NaN;2.0;NaN;2.0;1.0;NaN;NaN;0.0
2.0;1.0;NaN;3.0;2.5;1.0;NaN;0.0
1.0;NaN;NaN;1.0;1.0;1.0;NaN;0.0
2.0;1.0;NaN;3.0;2.5;1.0;NaN;0.0
NaN;1.0;NaN;1.0;0.5;NaN;NaN;0.0
NaN;1.0;NaN;1.0;0.5144231033742855;NaN;NaN;0.0
1.0;1.0;NaN;2.0;1.5;1.0;NaN;0.0
NaN;1.0;NaN;1.0;0.5;NaN;NaN;0.0
NaN;1.0;NaN;1.0;0.5;NaN;NaN;0.0
1.0;NaN;NaN;1.0;1.0;1.0;NaN;0.0
1.0;NaN;NaN;1.0;1.0;1.0;NaN;0.0
NaN;2.0;NaN;2.0;1.0;NaN;NaN;0.0
1.0;2.0;NaN;3.0;2.0;1.0;NaN;0.0
NaN;2.0;NaN;2.0;1.0;NaN;NaN;0.0
4.0;2.0;NaN;6.0;5.0;1.0;NaN;0.0
1.0;NaN;NaN;1.0;1.0;1.0;NaN;0.0
NaN;2.0;NaN;2.0;1.0;NaN;NaN;0.0
NaN;1.0;NaN;1.0;0.5;NaN;NaN;0.0
NaN;2.0;NaN;2.0;1.0;NaN;NaN;0.0
1.0;2.0;NaN;3.0;2.0;1.0;NaN;0.0
1.0;NaN;NaN;1.0;1.0;1.0;NaN;0.0
1.0;NaN;NaN;1.0;1.0;1.0;NaN;0.0
NaN;3.0;NaN;3.0;1.5;NaN;NaN;0.0
1.0;NaN;NaN;1.0;1.0;1.0;NaN;0.0
NaN;1.0;NaN;1.0;0.5;NaN;NaN;0.0
1.0;1.0;NaN;2.0;1.5;1.0;NaN;0.0
2.0;NaN;NaN;2.0;2.0;1.0;NaN;0.0
1.0;NaN;NaN;1.0;1.0;1.0;NaN;0.0
2.0;1.0;NaN;3.0;2.5;1.0;NaN;0.0
3.0;1.0;NaN;4.0;3.5;1.0;NaN;0.0
3.0;2.0;NaN;5.0;4.0;1.0;NaN;0.0
1.0;NaN;NaN;1.0;1.0;1.0;NaN;0.0
1.0;NaN;NaN;1.0;1.0;1.0;NaN;0.0
NaN;1.0;NaN;1.0;0.5;NaN;NaN;0.0
1.0;NaN;NaN;1.0;0.8;0.8;NaN;0.0
2.0;NaN;NaN;2.0;2.0;1.0;NaN;0.0
1.0;NaN;NaN;1.0;1.0;1.0;NaN;0.0
1.0;NaN;NaN;1.0;0.8;0.8;NaN;0.0
1.0;NaN;NaN;1.0;1.0;1.0;NaN;0.0
NaN;1.0;NaN;1.0;0.5144231033742855;NaN;NaN;0.0
1.0;NaN;NaN;1.0;1.0;1.0;NaN;0.0
NaN;1.0;NaN;1.0;0.5;NaN;NaN;0.0
1.0;1.0;NaN;2.0;1.5;1.0;NaN;0.0
NaN;1.0;NaN;1.0;0.5144231033742855;NaN;NaN;0.0
1.0;NaN;NaN;1.0;0.6;0.6;NaN;0.0
NaN;1.0;NaN;1.0;0.5;NaN;NaN;0.0
1.0;NaN;NaN;1.0;0.6;0.6;NaN;0.0
2.0;NaN;NaN;2.0;2.0;1.0;NaN;0.0
1.0;NaN;NaN;1.0;1.0;1.0;NaN;0.0
1.0;NaN;NaN;1.0;1.0;1.0;NaN;0.0
NaN;2.0;NaN;2.0;1.0;NaN;NaN;0.0
2.0;NaN;NaN;2.0;2.0;1.0;NaN;0.0
1.0;NaN;NaN;1.0;1.0;1.0;NaN;0.0
1.0;NaN;NaN;1.0;1.0;1.0;NaN;0.0
1.0;1.0;NaN;2.0;1.5;1.0;NaN;0.0
NaN;2.0;NaN;2.0;1.0;NaN;NaN;1.0
4.0;NaN;NaN;4.0;4.0;1.0;NaN;1.0
1.0;1.0;NaN;2.0;1.5;1.0;NaN;1.0
1.0;NaN;NaN;1.0;1.0;1.0;NaN;1.0
1.0;NaN;NaN;1.0;1.0;1.0;NaN;1.0
2.0;1.0;NaN;3.0;2.5;1.0;NaN;0.0
1.0;NaN;NaN;1.0;1.0;1.0;NaN;0.0
1.0;3.0;NaN;4.0;2.5;1.0;NaN;0.0
1.0;NaN;NaN;1.0;1.0;1.0;NaN;0.0
