NaN;1.0;NaN;1.0;0.5144231033742855;NaN;NaN;1.0
NaN;1.0;NaN;1.0;0.5144231033742855;NaN;NaN;1.0
NaN;1.0;NaN;1.0;0.5144231033742855;NaN;NaN;1.0
NaN;1.0;NaN;1.0;0.5144231033742855;NaN;NaN;1.0
NaN;1.0;NaN;1.0;0.5144231033742855;NaN;NaN;1.0
NaN;1.0;NaN;1.0;0.5144231033742855;NaN;NaN;1.0
NaN;1.0;NaN;1.0;0.5144231033742855;NaN;NaN;1.0
NaN;1.0;NaN;1.0;0.5144231033742855;NaN;NaN;1.0
NaN;1.0;NaN;1.0;0.5144231033742855;NaN;NaN;1.0
NaN;1.0;NaN;1.0;0.5144231033742855;NaN;NaN;1.0
NaN;1.0;NaN;1.0;0.5144231033742855;NaN;NaN;1.0
NaN;1.0;NaN;1.0;0.5144231033742855;NaN;NaN;1.0
NaN;1.0;NaN;1.0;0.5144231033742855;NaN;NaN;1.0
NaN;1.0;NaN;1.0;0.5144231033742855;NaN;NaN;1.0
NaN;1.0;NaN;1.0;0.5144231033742855;NaN;NaN;1.0
NaN;1.0;NaN;1.0;0.5144231033742855;NaN;NaN;1.0
NaN;2.0;NaN;2.0;1.028846206748571;NaN;NaN;1.0
NaN;1.0;NaN;1.0;0.5144231033742855;NaN;NaN;1.0
NaN;3.0;NaN;3.0;1.5432693101228567;NaN;NaN;1.0
NaN;1.0;NaN;1.0;0.5144231033742855;NaN;NaN;1.0
NaN;1.0;NaN;1.0;0.5144231033742855;NaN;NaN;1.0
NaN;3.0;NaN;3.0;1.5432693101228567;NaN;NaN;1.0
NaN;1.0;NaN;1.0;0.5144231033742855;NaN;NaN;1.0
NaN;1.0;NaN;1.0;0.5144231033742855;NaN;NaN;0.0
NaN;1.0;NaN;1.0;0.5144231033742855;NaN;NaN;0.0
NaN;1.0;NaN;1.0;0.5144231033742855;NaN;NaN;0.0
NaN;1.0;NaN;1.0;0.5144231033742855;NaN;NaN;0.0
NaN;2.0;NaN;2.0;1.028846206748571;NaN;NaN;0.0
NaN;1.0;NaN;1.0;0.5144231033742855;NaN;NaN;0.0
NaN;1.0;NaN;1.0;0.5144231033742855;NaN;NaN;0.0
NaN;1.0;NaN;1.0;0.5144231033742855;NaN;NaN;0.0
NaN;1.0;NaN;1.0;0.5144231033742855;NaN;NaN;0.0
NaN;1.0;NaN;1.0;0.5144231033742855;NaN;NaN;0.0
NaN;2.0;NaN;2.0;1.028846206748571;NaN;NaN;0.0
NaN;1.0;NaN;1.0;0.5144231033742855;NaN;NaN;0.0
NaN;2.0;NaN;2.0;1.028846206748571;NaN;NaN;0.0
NaN;1.0;NaN;1.0;0.5144231033742855;NaN;NaN;0.0
NaN;1.0;NaN;1.0;0.5144231033742855;NaN;NaN;0.0
NaN;1.0;NaN;1.0;0.5144231033742855;NaN;NaN;0.0
NaN;1.0;NaN;1.0;0.5144231033742855;NaN;NaN;0.0
NaN;1.0;NaN;1.0;0.5144231033742855;NaN;NaN;0.0
NaN;1.0;NaN;1.0;0.5144231033742855;NaN;NaN;0.0
NaN;1.0;NaN;1.0;0.5144231033742855;NaN;NaN;0.0
NaN;1.0;NaN;1.0;0.5144231033742855;NaN;NaN;0.0
NaN;1.0;NaN;1.0;0.5144231033742855;NaN;NaN;0.0
NaN;1.0;NaN;1.0;0.5144231033742855;NaN;NaN;0.0
NaN;1.0;NaN;1.0;0.5144231033742855;NaN;NaN;0.0
NaN;1.0;NaN;1.0;0.5144231033742855;NaN;NaN;0.0
NaN;1.0;NaN;1.0;0.5144231033742855;NaN;NaN;0.0
NaN;1.0;NaN;1.0;0.5144231033742855;NaN;NaN;0.0
NaN;1.0;NaN;1.0;0.5144231033742855;NaN;NaN;0.0
NaN;1.0;NaN;1.0;0.5144231033742855;NaN;NaN;0.0
NaN;1.0;NaN;1.0;0.5144231033742855;NaN;NaN;0.0
NaN;1.0;NaN;1.0;0.5144231033742855;NaN;NaN;0.0
NaN;1.0;NaN;1.0;0.5144231033742855;NaN;NaN;0.0
NaN;1.0;NaN;1.0;0.5144231033742855;NaN;NaN;0.0
NaN;1.0;NaN;1.0;0.5144231033742855;NaN;NaN;0.0
NaN;1.0;NaN;1.0;0.5144231033742855;NaN;NaN;0.0
NaN;1.0;NaN;1.0;0.5144231033742855;NaN;NaN;0.0
NaN;1.0;NaN;1.0;0.5144231033742855;NaN;NaN;0.0
NaN;1.0;NaN;1.0;0.5144231033742855;NaN;NaN;0.0
NaN;1.0;NaN;1.0;0.5144231033742855;NaN;NaN;0.0
NaN;1.0;NaN;1.0;0.5144231033742855;NaN;NaN;0.0
NaN;2.0;NaN;2.0;1.028846206748571;NaN;NaN;0.0
NaN;1.0;NaN;1.0;0.5144231033742855;NaN;NaN;0.0
NaN;1.0;NaN;1.0;0.5144231033742855;NaN;NaN;0.0
NaN;1.0;NaN;1.0;0.5144231033742855;NaN;NaN;0.0
NaN;1.0;NaN;1.0;0.5144231033742855;NaN;NaN;0.0
NaN;1.0;NaN;1.0;0.5144231033742855;NaN;NaN;0.0
NaN;1.0;NaN;1.0;0.5144231033742855;NaN;NaN;0.0
NaN;1.0;NaN;1.0;0.5144231033742855;NaN;NaN;0.0
NaN;1.0;NaN;1.0;0.5144231033742855;NaN;NaN;0.0
NaN;1.0;NaN;1.0;0.5144231033742855;NaN;NaN;2.0
NaN;2.0;NaN;2.0;1.028846206748571;NaN;NaN;2.0
NaN;1.0;NaN;1.0;0.5144231033742855;NaN;NaN;2.0
NaN;1.0;NaN;1.0;0.5144231033742855;NaN;NaN;2.0
NaN;1.0;NaN;1.0;0.5144231033742855;NaN;NaN;2.0
NaN;1.0;NaN;1.0;0.5144231033742855;NaN;NaN;2.0
NaN;1.0;NaN;1.0;0.5144231033742855;NaN;NaN;2.0
NaN;3.0;NaN;3.0;1.5432693101228567;NaN;NaN;2.0
NaN;1.0;NaN;1.0;0.5144231033742855;NaN;NaN;2.0
NaN;1.0;NaN;1.0;0.5144231033742855;NaN;NaN;2.0
NaN;1.0;NaN;1.0;0.5144231033742855;NaN;NaN;2.0
NaN;2.0;NaN;2.0;1.028846206748571;NaN;NaN;2.0
NaN;1.0;NaN;1.0;0.5144231033742855;NaN;NaN;2.0
NaN;1.0;NaN;1.0;0.5144231033742855;NaN;NaN;2.0
NaN;2.0;NaN;2.0;1.028846206748571;NaN;NaN;2.0
NaN;1.0;NaN;1.0;0.5144231033742855;NaN;NaN;2.0
NaN;1.0;NaN;1.0;0.5144231033742855;NaN;NaN;2.0
NaN;1.0;NaN;1.0;0.5144231033742855;NaN;NaN;1.0
NaN;1.0;NaN;1.0;0.5144231033742855;NaN;NaN;1.0
NaN;1.0;NaN;1.0;0.5144231033742855;NaN;NaN;1.0
NaN;1.0;NaN;1.0;0.5144231033742855;NaN;NaN;1.0
NaN;1.0;NaN;1.0;0.5144231033742855;NaN;NaN;1.0
NaN;1.0;NaN;1.0;0.5144231033742855;NaN;NaN;1.0
NaN;1.0;NaN;1.0;0.5144231033742855;NaN;NaN;0.0
NaN;1.0;NaN;1.0;0.5144231033742855;NaN;NaN;0.0
NaN;1.0;NaN;1.0;0.5144231033742855;NaN;NaN;0.0
NaN;1.0;NaN;1.0;0.5144231033742855;NaN;NaN;0.0
NaN;2.0;NaN;2.0;1.028846206748571;NaN;NaN;0.0
NaN;1.0;NaN;1.0;0.5144231033742855;NaN;NaN;0.0
NaN;1.0;NaN;1.0;0.5144231033742855;NaN;NaN;0.0
NaN;1.0;NaN;1.0;0.5144231033742855;NaN;NaN;0.0
NaN;1.0;NaN;1.0;0.5144231033742855;NaN;NaN;0.0
NaN;1.0;NaN;1.0;0.5144231033742855;NaN;NaN;0.0
NaN;2.0;NaN;2.0;1.028846206748571;NaN;NaN;0.0
NaN;1.0;NaN;1.0;0.5144231033742855;NaN;NaN;0.0
NaN;1.0;NaN;1.0;0.5144231033742855;NaN;NaN;0.0
NaN;1.0;NaN;1.0;0.5144231033742855;NaN;NaN;0.0
NaN;1.0;NaN;1.0;0.5144231033742855;NaN;NaN;0.0
NaN;2.0;NaN;2.0;1.028846206748571;NaN;NaN;0.0
NaN;1.0;NaN;1.0;0.5144231033742855;NaN;NaN;0.0
NaN;1.0;NaN;1.0;0.5144231033742855;NaN;NaN;0.0
NaN;1.0;NaN;1.0;0.5144231033742855;NaN;NaN;0.0
NaN;1.0;NaN;1.0;0.5144231033742855;NaN;NaN;0.0
NaN;1.0;NaN;1.0;0.5144231033742855;NaN;NaN;0.0
NaN;1.0;NaN;1.0;0.5144231033742855;NaN;NaN;0.0
NaN;1.0;NaN;1.0;0.5144231033742855;NaN;NaN;0.0
NaN;1.0;NaN;1.0;0.5144231033742855;NaN;NaN;0.0
NaN;1.0;NaN;1.0;0.5144231033742855;NaN;NaN;0.0
NaN;1.0;NaN;1.0;0.5144231033742855;NaN;NaN;0.0
NaN;1.0;NaN;1.0;0.5144231033742855;NaN;NaN;0.0
NaN;1.0;NaN;1.0;0.5144231033742855;NaN;NaN;0.0
NaN;1.0;NaN;1.0;0.5144231033742855;NaN;NaN;0.0
NaN;1.0;NaN;1.0;0.5144231033742855;NaN;NaN;0.0
NaN;1.0;NaN;1.0;0.5144231033742855;NaN;NaN;0.0
NaN;4.0;NaN;4.0;2.057692413497142;NaN;NaN;0.0
NaN;1.0;NaN;1.0;0.5144231033742855;NaN;NaN;0.0
NaN;1.0;NaN;1.0;0.5144231033742855;NaN;NaN;0.0
NaN;1.0;NaN;1.0;0.5144231033742855;NaN;NaN;0.0
NaN;1.0;NaN;1.0;0.5144231033742855;NaN;NaN;0.0
NaN;1.0;NaN;1.0;0.5144231033742855;NaN;NaN;1.0
NaN;1.0;NaN;1.0;0.5144231033742855;NaN;NaN;1.0
NaN;1.0;NaN;1.0;0.5144231033742855;NaN;NaN;0.0
NaN;1.0;NaN;1.0;0.5144231033742855;NaN;NaN;0.0
NaN;2.0;NaN;2.0;1.028846206748571;NaN;NaN;0.0
NaN;1.0;NaN;1.0;0.5144231033742855;NaN;NaN;0.0
NaN;6.0;NaN;6.0;3.086538620245713;NaN;NaN;0.0
NaN;1.0;NaN;1.0;0.5144231033742855;NaN;NaN;0.0
NaN;1.0;NaN;1.0;0.5144231033742855;NaN;NaN;0.0
NaN;1.0;NaN;1.0;0.5144231033742855;NaN;NaN;0.0
NaN;1.0;NaN;1.0;0.5144231033742855;NaN;NaN;0.0
NaN;1.0;NaN;1.0;0.5144231033742855;NaN;NaN;0.0
NaN;3.0;NaN;3.0;1.5432693101228567;NaN;NaN;0.0
NaN;1.0;NaN;1.0;0.5144231033742855;NaN;NaN;0.0
NaN;1.0;NaN;1.0;0.5144231033742855;NaN;NaN;0.0
NaN;1.0;NaN;1.0;0.5144231033742855;NaN;NaN;0.0
NaN;1.0;NaN;1.0;0.5144231033742855;NaN;NaN;0.0
NaN;1.0;NaN;1.0;0.5144231033742855;NaN;NaN;0.0
NaN;1.0;NaN;1.0;0.5144231033742855;NaN;NaN;0.0
NaN;1.0;NaN;1.0;0.5144231033742855;NaN;NaN;0.0
NaN;3.0;NaN;3.0;1.5432693101228567;NaN;NaN;0.0
NaN;1.0;NaN;1.0;0.5144231033742855;NaN;NaN;0.0
NaN;1.0;NaN;1.0;0.5144231033742855;NaN;NaN;0.0
NaN;3.0;NaN;3.0;1.5432693101228567;NaN;NaN;0.0
NaN;2.0;NaN;2.0;1.028846206748571;NaN;NaN;0.0
NaN;1.0;NaN;1.0;0.5144231033742855;NaN;NaN;0.0
NaN;1.0;NaN;1.0;0.5144231033742855;NaN;NaN;0.0
NaN;1.0;NaN;1.0;0.5144231033742855;NaN;NaN;0.0
NaN;2.0;NaN;2.0;1.028846206748571;NaN;NaN;0.0
NaN;2.0;NaN;2.0;1.028846206748571;NaN;NaN;0.0
NaN;1.0;NaN;1.0;0.5144231033742855;NaN;NaN;0.0
NaN;1.0;NaN;1.0;0.5144231033742855;NaN;NaN;0.0
NaN;1.0;NaN;1.0;0.5144231033742855;NaN;NaN;0.0
NaN;1.0;NaN;1.0;0.5144231033742855;NaN;NaN;0.0
NaN;1.0;NaN;1.0;0.5144231033742855;NaN;NaN;0.0
NaN;1.0;NaN;1.0;0.5144231033742855;NaN;NaN;0.0
NaN;1.0;NaN;1.0;0.5144231033742855;NaN;NaN;0.0
NaN;2.0;NaN;2.0;1.028846206748571;NaN;NaN;0.0
NaN;2.0;NaN;2.0;1.028846206748571;NaN;NaN;0.0
NaN;1.0;NaN;1.0;0.5144231033742855;NaN;NaN;0.0
NaN;1.0;NaN;1.0;0.5144231033742855;NaN;NaN;0.0
NaN;1.0;NaN;1.0;0.5144231033742855;NaN;NaN;0.0
NaN;1.0;NaN;1.0;0.5144231033742855;NaN;NaN;0.0
NaN;2.0;NaN;2.0;1.028846206748571;NaN;NaN;0.0
NaN;1.0;NaN;1.0;0.5144231033742855;NaN;NaN;0.0
NaN;1.0;NaN;1.0;0.5144231033742855;NaN;NaN;0.0
NaN;1.0;NaN;1.0;0.5144231033742855;NaN;NaN;0.0
NaN;1.0;NaN;1.0;0.5144231033742855;NaN;NaN;0.0
NaN;1.0;NaN;1.0;0.5144231033742855;NaN;NaN;0.0
NaN;3.0;NaN;3.0;1.5432693101228567;NaN;NaN;0.0
NaN;1.0;NaN;1.0;0.5144231033742855;NaN;NaN;0.0
NaN;1.0;NaN;1.0;0.5144231033742855;NaN;NaN;0.0
NaN;1.0;NaN;1.0;0.5144231033742855;NaN;NaN;0.0
NaN;1.0;NaN;1.0;0.5144231033742855;NaN;NaN;0.0
NaN;2.0;NaN;2.0;1.028846206748571;NaN;NaN;0.0
NaN;1.0;NaN;1.0;0.5144231033742855;NaN;NaN;0.0
NaN;1.0;NaN;1.0;0.5144231033742855;NaN;NaN;0.0
