@RELATION Unigram-AFINN

@ATTRIBUTE attribute_0 REAL
@ATTRIBUTE attribute_1 REAL
@ATTRIBUTE attribute_2 REAL
@ATTRIBUTE attribute_3 REAL
@ATTRIBUTE attribute_4 REAL
@ATTRIBUTE attribute_5 REAL
@ATTRIBUTE attribute_6 REAL
@ATTRIBUTE attribute_7 {0.0,1.0,2.0}

@DATA
NaN,NaN,1.0,1.0,0.3,NaN,0.3,1.0
NaN,NaN,1.0,1.0,0.3,NaN,0.3,1.0
2.0,NaN,NaN,2.0,1.2999999999999998,0.7,NaN,1.0
1.0,NaN,1.0,2.0,1.1,0.7,0.4,1.0
1.0,NaN,NaN,1.0,0.6,0.6,NaN,1.0
NaN,NaN,1.0,1.0,0.3,NaN,0.3,1.0
NaN,NaN,1.0,1.0,0.3,NaN,0.3,1.0
NaN,NaN,1.0,1.0,0.2,NaN,0.2,1.0
1.0,NaN,1.0,2.0,1.1,0.8,0.3,1.0
NaN,NaN,1.0,1.0,0.3,NaN,0.3,1.0
NaN,NaN,1.0,1.0,0.3,NaN,0.3,1.0
1.0,NaN,NaN,1.0,0.6,0.6,NaN,1.0
3.0,NaN,NaN,3.0,1.9,0.7,NaN,1.0
1.0,NaN,NaN,1.0,0.6,0.6,NaN,1.0
1.0,NaN,2.0,3.0,1.4,0.7,0.3,1.0
1.0,NaN,2.0,3.0,1.2,0.6,0.3,1.0
NaN,NaN,1.0,1.0,0.2,NaN,0.2,1.0
NaN,NaN,3.0,3.0,0.8,NaN,0.2,1.0
NaN,NaN,2.0,2.0,0.6,NaN,0.3,1.0
1.0,NaN,2.0,3.0,1.5,0.9,0.3,1.0
1.0,NaN,1.0,2.0,1.0,0.6,0.4,1.0
NaN,NaN,1.0,1.0,0.3,NaN,0.3,1.0
2.0,NaN,1.0,3.0,1.5999999999999999,0.7,0.3,1.0
1.0,NaN,1.0,2.0,1.1,0.7,0.4,1.0
NaN,NaN,2.0,2.0,0.7,NaN,0.3,1.0
NaN,NaN,1.0,1.0,0.3,NaN,0.3,1.0
1.0,NaN,1.0,2.0,1.0,0.7,0.3,1.0
NaN,NaN,1.0,1.0,0.4,NaN,0.4,1.0
1.0,NaN,NaN,1.0,0.7,0.7,NaN,1.0
1.0,NaN,NaN,1.0,0.8,0.8,NaN,1.0
NaN,NaN,3.0,3.0,1.0,NaN,0.3,1.0
NaN,NaN,3.0,3.0,1.1,NaN,0.3,1.0
2.0,NaN,NaN,2.0,1.4,0.7,NaN,1.0
1.0,NaN,1.0,2.0,1.1,0.8,0.3,1.0
1.0,NaN,3.0,4.0,1.5,0.7,0.2,1.0
1.0,NaN,NaN,1.0,0.6,0.6,NaN,1.0
1.0,NaN,NaN,1.0,0.8,0.8,NaN,1.0
NaN,NaN,1.0,1.0,0.3,NaN,0.3,1.0
1.0,NaN,1.0,2.0,1.0,0.7,0.3,1.0
NaN,NaN,1.0,1.0,0.4,NaN,0.4,1.0
NaN,NaN,1.0,1.0,0.3,NaN,0.3,1.0
4.0,NaN,NaN,4.0,2.5999999999999996,0.7,NaN,1.0
3.0,NaN,1.0,4.0,2.4,0.7,0.3,1.0
1.0,NaN,NaN,1.0,0.7,0.7,NaN,1.0
2.0,NaN,NaN,2.0,1.2999999999999998,0.7,NaN,1.0
1.0,NaN,NaN,1.0,0.6,0.6,NaN,1.0
1.0,NaN,NaN,1.0,0.6,0.6,NaN,1.0
1.0,NaN,1.0,2.0,1.0,0.8,0.2,1.0
1.0,NaN,2.0,3.0,1.2999999999999998,0.6,0.3,1.0
NaN,NaN,1.0,1.0,0.4,NaN,0.4,1.0
1.0,NaN,NaN,1.0,0.7,0.7,NaN,1.0
NaN,NaN,1.0,1.0,0.4,NaN,0.4,1.0
NaN,NaN,2.0,2.0,0.6,NaN,0.3,1.0
1.0,NaN,NaN,1.0,0.6,0.6,NaN,1.0
1.0,NaN,NaN,1.0,0.9,0.9,NaN,1.0
1.0,NaN,NaN,1.0,0.9,0.9,NaN,1.0
NaN,NaN,1.0,1.0,0.3,NaN,0.3,1.0
1.0,NaN,1.0,2.0,1.1,0.8,0.3,1.0
NaN,NaN,1.0,1.0,0.4,NaN,0.4,1.0
NaN,NaN,1.0,1.0,0.3,NaN,0.3,1.0
NaN,NaN,1.0,1.0,0.2,NaN,0.2,1.0
NaN,NaN,5.0,5.0,1.8000000000000003,NaN,0.3,1.0
NaN,NaN,1.0,1.0,0.3,NaN,0.3,1.0
3.0,NaN,NaN,3.0,1.9,0.7,NaN,1.0
1.0,NaN,NaN,1.0,0.7,0.7,NaN,1.0
1.0,NaN,2.0,3.0,1.2,0.7,0.2,1.0
NaN,NaN,1.0,1.0,0.3,NaN,0.3,1.0
1.0,NaN,1.0,2.0,1.0,0.7,0.3,1.0
3.0,NaN,1.0,4.0,2.4,0.7,0.3,1.0
1.0,NaN,NaN,1.0,0.7,0.7,NaN,1.0
1.0,NaN,NaN,1.0,0.7,0.7,NaN,1.0
1.0,NaN,1.0,2.0,1.0,0.6,0.4,1.0
NaN,NaN,3.0,3.0,0.8999999999999999,NaN,0.3,1.0
NaN,NaN,1.0,1.0,0.3,NaN,0.3,1.0
NaN,NaN,2.0,2.0,0.6,NaN,0.3,1.0
NaN,NaN,2.0,2.0,0.6,NaN,0.3,1.0
1.0,NaN,NaN,1.0,0.6,0.6,NaN,1.0
1.0,NaN,NaN,1.0,0.8,0.8,NaN,1.0
NaN,NaN,2.0,2.0,0.8,NaN,0.4,1.0
NaN,NaN,1.0,1.0,0.3,NaN,0.3,1.0
1.0,NaN,NaN,1.0,0.7,0.7,NaN,1.0
3.0,NaN,2.0,5.0,2.7,0.7,0.3,1.0
1.0,NaN,NaN,1.0,0.8,0.8,NaN,1.0
NaN,NaN,1.0,1.0,0.3,NaN,0.3,1.0
NaN,NaN,1.0,1.0,0.4,NaN,0.4,1.0
1.0,NaN,1.0,2.0,1.1,0.7,0.4,1.0
NaN,NaN,1.0,1.0,0.3,NaN,0.3,1.0
NaN,NaN,1.0,1.0,0.3,NaN,0.3,1.0
2.0,NaN,NaN,2.0,1.4,0.8,NaN,1.0
NaN,NaN,1.0,1.0,0.4,NaN,0.4,1.0
NaN,NaN,1.0,1.0,0.4,NaN,0.4,1.0
1.0,NaN,1.0,2.0,1.1,0.7,0.4,1.0
1.0,NaN,NaN,1.0,0.7,0.7,NaN,1.0
1.0,NaN,1.0,2.0,1.0,0.7,0.3,1.0
NaN,NaN,1.0,1.0,0.3,NaN,0.3,1.0
NaN,NaN,1.0,1.0,0.3,NaN,0.3,1.0
1.0,NaN,NaN,1.0,0.6,0.6,NaN,1.0
NaN,NaN,1.0,1.0,0.3,NaN,0.3,1.0
NaN,NaN,1.0,1.0,0.2,NaN,0.2,1.0
1.0,NaN,NaN,1.0,0.9,0.9,NaN,1.0
1.0,NaN,NaN,1.0,0.6,0.6,NaN,1.0
1.0,NaN,1.0,2.0,1.1,0.7,0.4,1.0
1.0,NaN,1.0,2.0,1.1,0.7,0.4,1.0
NaN,NaN,1.0,1.0,0.3,NaN,0.3,1.0
1.0,NaN,1.0,2.0,1.1,0.7,0.4,1.0
NaN,NaN,2.0,2.0,0.7,NaN,0.3,1.0
2.0,NaN,NaN,2.0,1.6,0.8,NaN,1.0
NaN,NaN,4.0,4.0,1.2,NaN,0.2,1.0
NaN,NaN,2.0,2.0,0.5,NaN,0.2,1.0
1.0,NaN,NaN,1.0,0.7,0.7,NaN,1.0
2.0,NaN,NaN,2.0,1.2,0.6,NaN,1.0
1.0,NaN,NaN,1.0,0.6,0.6,NaN,1.0
2.0,NaN,NaN,2.0,1.6,0.8,NaN,1.0
NaN,NaN,1.0,1.0,0.3,NaN,0.3,1.0
NaN,NaN,1.0,1.0,0.4,NaN,0.4,1.0
1.0,NaN,NaN,1.0,0.7,0.7,NaN,1.0
NaN,NaN,1.0,1.0,0.4,NaN,0.4,0.0
1.0,NaN,NaN,1.0,0.7,0.7,NaN,0.0
3.0,NaN,NaN,3.0,2.0999999999999996,0.8,NaN,0.0
1.0,NaN,NaN,1.0,0.7,0.7,NaN,0.0
NaN,NaN,1.0,1.0,0.4,NaN,0.4,0.0
1.0,NaN,NaN,1.0,0.6,0.6,NaN,0.0
1.0,NaN,NaN,1.0,0.6,0.6,NaN,0.0
1.0,NaN,2.0,3.0,1.4,0.6,0.4,0.0
1.0,NaN,NaN,1.0,0.7,0.7,NaN,0.0
1.0,NaN,1.0,2.0,1.3,0.9,0.4,0.0
2.0,NaN,NaN,2.0,1.4,0.8,NaN,0.0
1.0,NaN,1.0,2.0,1.1,0.7,0.4,0.0
2.0,NaN,NaN,2.0,1.4,0.7,NaN,0.0
1.0,NaN,NaN,1.0,0.7,0.7,NaN,0.0
1.0,NaN,NaN,1.0,0.8,0.8,NaN,0.0
1.0,NaN,1.0,2.0,1.0,0.6,0.4,0.0
2.0,NaN,NaN,2.0,1.4,0.7,NaN,0.0
NaN,NaN,2.0,2.0,0.8,NaN,0.4,0.0
NaN,NaN,2.0,2.0,0.6,NaN,0.3,0.0
1.0,NaN,NaN,1.0,0.7,0.7,NaN,0.0
2.0,NaN,3.0,5.0,2.3,0.6,0.3,0.0
1.0,NaN,NaN,1.0,0.7,0.7,NaN,0.0
2.0,NaN,NaN,2.0,1.2999999999999998,0.7,NaN,0.0
NaN,NaN,1.0,1.0,0.3,NaN,0.3,0.0
1.0,NaN,1.0,2.0,1.0,0.6,0.4,0.0
1.0,NaN,NaN,1.0,0.6,0.6,NaN,0.0
NaN,NaN,1.0,1.0,0.3,NaN,0.3,0.0
1.0,NaN,1.0,2.0,0.8999999999999999,0.6,0.3,0.0
1.0,NaN,2.0,3.0,1.4,0.7,0.3,0.0
1.0,NaN,NaN,1.0,0.7,0.7,NaN,0.0
1.0,NaN,NaN,1.0,0.6,0.6,NaN,0.0
2.0,NaN,1.0,3.0,1.5,0.6,0.3,0.0
1.0,NaN,2.0,3.0,1.4,0.7,0.3,0.0
NaN,NaN,4.0,4.0,1.5,NaN,0.3,0.0
1.0,NaN,NaN,1.0,0.6,0.6,NaN,0.0
3.0,NaN,NaN,3.0,1.7999999999999998,0.6,NaN,0.0
2.0,NaN,1.0,3.0,1.6,0.6,0.4,0.0
2.0,NaN,NaN,2.0,1.2,0.6,NaN,0.0
1.0,NaN,NaN,1.0,0.6,0.6,NaN,0.0
1.0,NaN,NaN,1.0,0.6,0.6,NaN,0.0
1.0,NaN,1.0,2.0,0.8999999999999999,0.6,0.3,0.0
1.0,NaN,1.0,2.0,1.3,0.9,0.4,0.0
NaN,NaN,1.0,1.0,0.2,NaN,0.2,0.0
1.0,NaN,NaN,1.0,0.7,0.7,NaN,0.0
3.0,NaN,1.0,4.0,2.3,0.8,0.2,0.0
1.0,NaN,NaN,1.0,0.6,0.6,NaN,0.0
NaN,NaN,1.0,1.0,0.3,NaN,0.3,0.0
1.0,NaN,1.0,2.0,1.0,0.7,0.3,0.0
NaN,NaN,3.0,3.0,0.8999999999999999,NaN,0.3,0.0
NaN,NaN,1.0,1.0,0.4,NaN,0.4,0.0
NaN,NaN,1.0,1.0,0.4,NaN,0.4,0.0
1.0,NaN,1.0,2.0,1.1,0.8,0.3,0.0
2.0,NaN,2.0,4.0,1.8999999999999997,0.7,0.2,0.0
2.0,NaN,1.0,3.0,1.7000000000000002,0.7,0.4,0.0
1.0,NaN,NaN,1.0,0.7,0.7,NaN,0.0
1.0,NaN,3.0,4.0,1.5,0.7,0.2,0.0
1.0,NaN,1.0,2.0,1.0,0.6,0.4,0.0
NaN,NaN,3.0,3.0,1.0,NaN,0.3,0.0
1.0,NaN,NaN,1.0,0.6,0.6,NaN,0.0
NaN,NaN,1.0,1.0,0.3,NaN,0.3,0.0
NaN,NaN,1.0,1.0,0.3,NaN,0.3,0.0
2.0,NaN,NaN,2.0,1.2999999999999998,0.7,NaN,0.0
1.0,NaN,3.0,4.0,1.5,0.7,0.2,0.0
1.0,NaN,NaN,1.0,0.7,0.7,NaN,0.0
NaN,NaN,1.0,1.0,0.3,NaN,0.3,0.0
1.0,NaN,1.0,2.0,0.8999999999999999,0.6,0.3,0.0
NaN,NaN,1.0,1.0,0.4,NaN,0.4,0.0
2.0,NaN,NaN,2.0,1.2999999999999998,0.7,NaN,0.0
1.0,NaN,NaN,1.0,0.6,0.6,NaN,0.0
1.0,NaN,1.0,2.0,1.0,0.6,0.4,0.0
NaN,NaN,1.0,1.0,0.4,NaN,0.4,0.0
1.0,NaN,NaN,1.0,0.8,0.8,NaN,0.0
4.0,NaN,NaN,4.0,3.1,0.9,NaN,0.0
1.0,NaN,NaN,1.0,0.6,0.6,NaN,0.0
2.0,NaN,NaN,2.0,1.2,0.6,NaN,0.0
1.0,NaN,NaN,1.0,1.0,1.0,NaN,0.0
NaN,NaN,1.0,1.0,0.4,NaN,0.4,0.0
1.0,NaN,NaN,1.0,0.6,0.6,NaN,0.0
1.0,NaN,NaN,1.0,0.8,0.8,NaN,0.0
1.0,NaN,NaN,1.0,0.7,0.7,NaN,0.0
1.0,NaN,1.0,2.0,1.0,0.6,0.4,0.0
1.0,NaN,NaN,1.0,0.7,0.7,NaN,0.0
NaN,NaN,1.0,1.0,0.2,NaN,0.2,0.0
NaN,NaN,1.0,1.0,0.4,NaN,0.4,0.0
1.0,NaN,NaN,1.0,0.6,0.6,NaN,0.0
2.0,NaN,2.0,4.0,2.0999999999999996,0.7,0.3,0.0
2.0,NaN,NaN,2.0,1.2,0.6,NaN,0.0
NaN,NaN,1.0,1.0,0.4,NaN,0.4,0.0
1.0,NaN,1.0,2.0,1.3,0.9,0.4,0.0
1.0,NaN,NaN,1.0,0.6,0.6,NaN,0.0
1.0,NaN,NaN,1.0,0.6,0.6,NaN,0.0
1.0,NaN,NaN,1.0,0.6,0.6,NaN,0.0
NaN,NaN,3.0,3.0,1.1,NaN,0.3,0.0
NaN,NaN,2.0,2.0,0.5,NaN,0.2,0.0
1.0,NaN,1.0,2.0,1.0,0.6,0.4,0.0
1.0,NaN,NaN,1.0,0.8,0.8,NaN,0.0
NaN,NaN,1.0,1.0,0.3,NaN,0.3,0.0
2.0,NaN,NaN,2.0,1.2999999999999998,0.7,NaN,0.0
NaN,NaN,2.0,2.0,0.7,NaN,0.3,0.0
2.0,NaN,NaN,2.0,1.2999999999999998,0.7,NaN,0.0
1.0,NaN,1.0,2.0,1.0,0.7,0.3,0.0
1.0,NaN,1.0,2.0,0.8,0.6,0.2,0.0
1.0,NaN,1.0,2.0,1.1,0.7,0.4,0.0
1.0,NaN,NaN,1.0,0.8,0.8,NaN,0.0
3.0,NaN,NaN,3.0,2.4,0.9,NaN,0.0
1.0,NaN,NaN,1.0,0.7,0.7,NaN,0.0
2.0,NaN,NaN,2.0,1.4,0.7,NaN,0.0
NaN,NaN,1.0,1.0,0.2,NaN,0.2,0.0
1.0,NaN,NaN,1.0,0.6,0.6,NaN,0.0
NaN,NaN,1.0,1.0,0.4,NaN,0.4,0.0
NaN,NaN,1.0,1.0,0.4,NaN,0.4,0.0
2.0,NaN,1.0,3.0,1.6999999999999997,0.7,0.4,0.0
1.0,NaN,NaN,1.0,0.7,0.7,NaN,0.0
1.0,NaN,1.0,2.0,1.3,0.9,0.4,0.0
2.0,NaN,NaN,2.0,1.2999999999999998,0.7,NaN,0.0
1.0,NaN,NaN,1.0,0.6,0.6,NaN,0.0
1.0,NaN,2.0,3.0,1.4000000000000001,0.7,0.3,0.0
1.0,NaN,NaN,1.0,0.7,0.7,NaN,0.0
2.0,NaN,NaN,2.0,1.5,0.8,NaN,0.0
NaN,NaN,1.0,1.0,0.3,NaN,0.3,0.0
1.0,NaN,NaN,1.0,0.7,0.7,NaN,0.0
1.0,NaN,NaN,1.0,0.6,0.6,NaN,0.0
1.0,NaN,NaN,1.0,0.7,0.7,NaN,0.0
3.0,NaN,1.0,4.0,3.0,0.9,0.4,0.0
NaN,NaN,1.0,1.0,0.4,NaN,0.4,0.0
1.0,NaN,NaN,1.0,0.6,0.6,NaN,0.0
NaN,NaN,1.0,1.0,0.4,NaN,0.4,0.0
2.0,NaN,NaN,2.0,1.4,0.7,NaN,0.0
NaN,NaN,1.0,1.0,0.3,NaN,0.3,0.0
2.0,NaN,NaN,2.0,1.5,0.8,NaN,0.0
NaN,NaN,4.0,4.0,1.5,NaN,0.3,0.0
1.0,NaN,NaN,1.0,0.6,0.6,NaN,0.0
1.0,NaN,1.0,2.0,1.0,0.7,0.3,0.0
3.0,NaN,NaN,3.0,1.7999999999999998,0.6,NaN,0.0
1.0,NaN,NaN,1.0,0.7,0.7,NaN,0.0
1.0,NaN,1.0,2.0,1.0,0.6,0.4,0.0
1.0,NaN,NaN,1.0,0.6,0.6,NaN,0.0
NaN,NaN,1.0,1.0,0.4,NaN,0.4,0.0
1.0,NaN,NaN,1.0,0.6,0.6,NaN,0.0
3.0,NaN,NaN,3.0,2.4000000000000004,0.8,NaN,0.0
NaN,NaN,1.0,1.0,0.4,NaN,0.4,0.0
1.0,NaN,NaN,1.0,0.6,0.6,NaN,0.0
NaN,NaN,1.0,1.0,0.3,NaN,0.3,0.0
1.0,NaN,NaN,1.0,0.7,0.7,NaN,0.0
1.0,NaN,NaN,1.0,0.7,0.7,NaN,0.0
1.0,NaN,NaN,1.0,0.6,0.6,NaN,0.0
NaN,NaN,1.0,1.0,0.4,NaN,0.4,0.0
NaN,NaN,2.0,2.0,0.30000000000000004,NaN,0.1,0.0
NaN,NaN,1.0,1.0,0.3,NaN,0.3,0.0
NaN,NaN,3.0,3.0,1.1,NaN,0.3,0.0
NaN,NaN,2.0,2.0,0.7,NaN,0.3,0.0
1.0,NaN,NaN,1.0,0.6,0.6,NaN,0.0
1.0,NaN,NaN,1.0,0.7,0.7,NaN,0.0
1.0,NaN,NaN,1.0,0.7,0.7,NaN,0.0
NaN,NaN,1.0,1.0,0.4,NaN,0.4,0.0
1.0,NaN,NaN,1.0,0.6,0.6,NaN,0.0
1.0,NaN,NaN,1.0,0.8,0.8,NaN,0.0
1.0,NaN,NaN,1.0,0.7,0.7,NaN,0.0
2.0,NaN,2.0,4.0,1.7,0.7,0.2,0.0
1.0,NaN,1.0,2.0,1.3,0.9,0.4,0.0
1.0,NaN,1.0,2.0,0.8999999999999999,0.6,0.3,0.0
4.0,NaN,NaN,4.0,2.8000000000000003,0.8,NaN,0.0
NaN,NaN,1.0,1.0,0.4,NaN,0.4,0.0
2.0,NaN,NaN,2.0,1.2,0.6,NaN,0.0
2.0,NaN,NaN,2.0,1.2999999999999998,0.7,NaN,0.0
2.0,NaN,NaN,2.0,1.2999999999999998,0.7,NaN,0.0
NaN,NaN,1.0,1.0,0.3,NaN,0.3,0.0
1.0,NaN,NaN,1.0,0.6,0.6,NaN,0.0
2.0,NaN,2.0,4.0,2.1999999999999997,0.9,0.3,0.0
1.0,NaN,1.0,2.0,0.8999999999999999,0.6,0.3,0.0
1.0,NaN,NaN,1.0,0.7,0.7,NaN,0.0
1.0,NaN,2.0,3.0,1.2,0.6,0.3,0.0
1.0,NaN,1.0,2.0,0.8999999999999999,0.6,0.3,0.0
1.0,NaN,NaN,1.0,0.6,0.6,NaN,0.0
1.0,NaN,NaN,1.0,1.0,1.0,NaN,0.0
1.0,NaN,1.0,2.0,1.0,0.6,0.4,0.0
1.0,NaN,2.0,3.0,1.2999999999999998,0.6,0.3,0.0
1.0,NaN,1.0,2.0,0.8999999999999999,0.6,0.3,0.0
1.0,NaN,1.0,2.0,1.0,0.7,0.3,0.0
1.0,NaN,NaN,1.0,0.7,0.7,NaN,0.0
1.0,NaN,NaN,1.0,0.6,0.6,NaN,0.0
1.0,NaN,NaN,1.0,0.6,0.6,NaN,0.0
1.0,NaN,NaN,1.0,0.7,0.7,NaN,0.0
1.0,NaN,NaN,1.0,0.6,0.6,NaN,0.0
1.0,NaN,NaN,1.0,0.7,0.7,NaN,0.0
4.0,NaN,NaN,4.0,2.6,0.7,NaN,0.0
2.0,NaN,1.0,3.0,1.7000000000000002,0.7,0.4,0.0
1.0,NaN,NaN,1.0,0.6,0.6,NaN,0.0
1.0,NaN,1.0,2.0,1.0,0.7,0.3,0.0
NaN,NaN,1.0,1.0,0.3,NaN,0.3,0.0
NaN,NaN,1.0,1.0,0.4,NaN,0.4,2.0
NaN,NaN,1.0,1.0,0.3,NaN,0.3,2.0
2.0,NaN,NaN,2.0,1.5,0.8,NaN,2.0
1.0,NaN,3.0,4.0,1.7000000000000002,0.7,0.3,2.0
1.0,NaN,1.0,2.0,1.1,0.7,0.4,2.0
NaN,NaN,2.0,2.0,0.6,NaN,0.3,2.0
1.0,NaN,3.0,4.0,1.4,0.7,0.2,2.0
2.0,NaN,NaN,2.0,1.4,0.8,NaN,2.0
2.0,NaN,NaN,2.0,1.2,0.6,NaN,2.0
NaN,NaN,1.0,1.0,0.3,NaN,0.3,2.0
1.0,NaN,1.0,2.0,1.1,0.8,0.3,2.0
2.0,NaN,1.0,3.0,2.0,0.9,0.3,2.0
1.0,NaN,NaN,1.0,0.7,0.7,NaN,2.0
2.0,NaN,NaN,2.0,1.4,0.8,NaN,2.0
1.0,NaN,NaN,1.0,0.6,0.6,NaN,2.0
1.0,NaN,1.0,2.0,1.1,0.8,0.3,2.0
NaN,NaN,2.0,2.0,0.7,NaN,0.3,2.0
1.0,NaN,NaN,1.0,0.6,0.6,NaN,2.0
1.0,NaN,NaN,1.0,0.7,0.7,NaN,2.0
3.0,NaN,2.0,5.0,2.8,0.8,0.3,2.0
1.0,NaN,2.0,3.0,1.3,0.8,0.2,2.0
1.0,NaN,2.0,3.0,1.3,0.8,0.2,2.0
NaN,NaN,1.0,1.0,0.3,NaN,0.3,2.0
NaN,NaN,2.0,2.0,0.6,NaN,0.3,2.0
2.0,NaN,1.0,3.0,1.5,0.6,0.3,2.0
1.0,NaN,NaN,1.0,0.6,0.6,NaN,2.0
NaN,NaN,1.0,1.0,0.3,NaN,0.3,2.0
2.0,NaN,NaN,2.0,1.4,0.8,NaN,2.0
NaN,NaN,1.0,1.0,0.3,NaN,0.3,2.0
1.0,NaN,NaN,1.0,0.7,0.7,NaN,2.0
1.0,NaN,2.0,3.0,1.3,0.6,0.3,2.0
NaN,NaN,1.0,1.0,0.3,NaN,0.3,2.0
1.0,NaN,NaN,1.0,0.6,0.6,NaN,2.0
1.0,NaN,NaN,1.0,0.7,0.7,NaN,2.0
1.0,NaN,1.0,2.0,1.0,0.6,0.4,2.0
1.0,NaN,NaN,1.0,0.6,0.6,NaN,2.0
2.0,NaN,NaN,2.0,1.2,0.6,NaN,2.0
1.0,NaN,2.0,3.0,1.2000000000000002,0.6,0.2,2.0
1.0,NaN,NaN,1.0,0.7,0.7,NaN,2.0
1.0,NaN,NaN,1.0,0.8,0.8,NaN,2.0
NaN,NaN,1.0,1.0,0.3,NaN,0.3,2.0
NaN,NaN,2.0,2.0,0.6,NaN,0.3,2.0
2.0,NaN,2.0,4.0,2.2,0.7,0.4,2.0
4.0,NaN,1.0,5.0,2.8999999999999995,0.7,0.3,2.0
4.0,NaN,1.0,5.0,2.8999999999999995,0.7,0.3,2.0
1.0,NaN,NaN,1.0,0.6,0.6,NaN,2.0
NaN,NaN,1.0,1.0,0.3,NaN,0.3,2.0
NaN,NaN,1.0,1.0,0.3,NaN,0.3,2.0
2.0,NaN,NaN,2.0,1.7,1.0,NaN,2.0
1.0,NaN,NaN,1.0,0.6,0.6,NaN,2.0
NaN,NaN,2.0,2.0,0.6,NaN,0.3,2.0
1.0,NaN,NaN,1.0,0.7,0.7,NaN,2.0
1.0,NaN,NaN,1.0,0.7,0.7,NaN,2.0
1.0,NaN,1.0,2.0,1.1,0.8,0.3,2.0
NaN,NaN,1.0,1.0,0.3,NaN,0.3,2.0
1.0,NaN,NaN,1.0,0.6,0.6,NaN,2.0
NaN,NaN,1.0,1.0,0.4,NaN,0.4,2.0
1.0,NaN,2.0,3.0,1.2000000000000002,0.6,0.2,2.0
1.0,NaN,1.0,2.0,1.2000000000000002,0.8,0.4,2.0
NaN,NaN,2.0,2.0,0.7,NaN,0.3,2.0
3.0,NaN,1.0,4.0,2.3,0.7,0.3,2.0
2.0,NaN,2.0,4.0,1.8000000000000003,0.6,0.2,2.0
3.0,NaN,NaN,3.0,1.9999999999999998,0.7,NaN,2.0
1.0,NaN,1.0,2.0,0.8999999999999999,0.7,0.2,2.0
NaN,NaN,1.0,1.0,0.2,NaN,0.2,2.0
NaN,NaN,1.0,1.0,0.3,NaN,0.3,2.0
1.0,NaN,NaN,1.0,0.7,0.7,NaN,1.0
2.0,NaN,1.0,3.0,1.6,0.6,0.4,1.0
1.0,NaN,NaN,1.0,0.7,0.7,NaN,1.0
1.0,NaN,2.0,3.0,1.5000000000000002,0.8,0.3,1.0
1.0,NaN,1.0,2.0,1.1,0.7,0.4,1.0
1.0,NaN,NaN,1.0,0.6,0.6,NaN,1.0
NaN,NaN,1.0,1.0,0.4,NaN,0.4,1.0
2.0,NaN,NaN,2.0,1.2999999999999998,0.7,NaN,1.0
NaN,NaN,1.0,1.0,0.3,NaN,0.3,1.0
NaN,NaN,2.0,2.0,0.6000000000000001,NaN,0.2,1.0
NaN,NaN,1.0,1.0,0.4,NaN,0.4,1.0
NaN,NaN,1.0,1.0,0.3,NaN,0.3,1.0
1.0,NaN,1.0,2.0,1.1,0.8,0.3,1.0
1.0,NaN,NaN,1.0,0.8,0.8,NaN,1.0
2.0,NaN,2.0,4.0,1.8,0.6,0.3,1.0
1.0,NaN,NaN,1.0,0.7,0.7,NaN,1.0
NaN,NaN,1.0,1.0,0.3,NaN,0.3,1.0
NaN,NaN,4.0,4.0,1.3,NaN,0.3,1.0
NaN,NaN,3.0,3.0,1.2000000000000002,NaN,0.4,1.0
1.0,NaN,NaN,1.0,0.6,0.6,NaN,1.0
3.0,NaN,1.0,4.0,2.3,0.7,0.4,1.0
NaN,NaN,1.0,1.0,0.4,NaN,0.4,1.0
1.0,NaN,1.0,2.0,1.1,0.7,0.4,1.0
1.0,NaN,2.0,3.0,1.4,0.6,0.4,1.0
NaN,NaN,1.0,1.0,0.4,NaN,0.4,1.0
1.0,NaN,1.0,2.0,1.1,0.7,0.4,1.0
1.0,NaN,1.0,2.0,1.1,0.7,0.4,1.0
NaN,NaN,1.0,1.0,0.3,NaN,0.3,1.0
1.0,NaN,2.0,3.0,1.2000000000000002,0.6,0.2,0.0
1.0,NaN,NaN,1.0,0.7,0.7,NaN,0.0
1.0,NaN,1.0,2.0,0.8999999999999999,0.6,0.3,0.0
NaN,NaN,1.0,1.0,0.3,NaN,0.3,0.0
1.0,NaN,1.0,2.0,0.8999999999999999,0.7,0.2,0.0
1.0,NaN,NaN,1.0,0.8,0.8,NaN,0.0
1.0,NaN,NaN,1.0,0.6,0.6,NaN,0.0
1.0,NaN,NaN,1.0,1.0,1.0,NaN,0.0
1.0,NaN,NaN,1.0,0.8,0.8,NaN,0.0
2.0,NaN,NaN,2.0,1.4,0.8,NaN,0.0
1.0,NaN,NaN,1.0,0.8,0.8,NaN,0.0
1.0,NaN,NaN,1.0,0.8,0.8,NaN,0.0
1.0,NaN,NaN,1.0,0.6,0.6,NaN,0.0
NaN,NaN,1.0,1.0,0.3,NaN,0.3,0.0
1.0,NaN,1.0,2.0,1.0,0.6,0.4,0.0
1.0,NaN,NaN,1.0,0.7,0.7,NaN,0.0
1.0,NaN,1.0,2.0,1.0,0.7,0.3,0.0
1.0,NaN,NaN,1.0,0.6,0.6,NaN,0.0
1.0,NaN,1.0,2.0,1.0,0.6,0.4,0.0
NaN,NaN,1.0,1.0,0.1,NaN,0.1,0.0
1.0,NaN,NaN,1.0,1.0,1.0,NaN,0.0
NaN,NaN,1.0,1.0,0.4,NaN,0.4,0.0
NaN,NaN,1.0,1.0,0.3,NaN,0.3,0.0
NaN,NaN,1.0,1.0,0.3,NaN,0.3,0.0
1.0,NaN,NaN,1.0,0.6,0.6,NaN,0.0
1.0,NaN,NaN,1.0,0.6,0.6,NaN,0.0
1.0,NaN,NaN,1.0,0.6,0.6,NaN,0.0
2.0,NaN,NaN,2.0,1.2999999999999998,0.7,NaN,0.0
2.0,NaN,NaN,2.0,1.2999999999999998,0.7,NaN,0.0
NaN,NaN,1.0,1.0,0.4,NaN,0.4,0.0
3.0,NaN,NaN,3.0,2.0999999999999996,0.7,NaN,0.0
1.0,NaN,1.0,2.0,1.1,0.7,0.4,0.0
NaN,NaN,1.0,1.0,0.4,NaN,0.4,0.0
1.0,NaN,1.0,2.0,1.0,0.6,0.4,0.0
NaN,NaN,2.0,2.0,0.8,NaN,0.4,0.0
2.0,NaN,1.0,3.0,1.7000000000000002,0.7,0.4,0.0
2.0,NaN,NaN,2.0,1.4,0.8,NaN,0.0
1.0,NaN,1.0,2.0,0.8999999999999999,0.6,0.3,0.0
1.0,NaN,NaN,1.0,0.7,0.7,NaN,0.0
1.0,NaN,NaN,1.0,0.8,0.8,NaN,0.0
1.0,NaN,NaN,1.0,0.6,0.6,NaN,0.0
2.0,NaN,1.0,3.0,1.8,0.8,0.3,0.0
NaN,NaN,1.0,1.0,0.3,NaN,0.3,0.0
2.0,NaN,NaN,2.0,1.5,0.8,NaN,0.0
1.0,NaN,1.0,2.0,0.8999999999999999,0.6,0.3,0.0
1.0,NaN,2.0,3.0,1.4000000000000001,0.8,0.2,0.0
1.0,NaN,NaN,1.0,0.7,0.7,NaN,0.0
1.0,NaN,NaN,1.0,0.7,0.7,NaN,0.0
NaN,NaN,1.0,1.0,0.4,NaN,0.4,0.0
2.0,NaN,1.0,3.0,1.7000000000000002,0.7,0.4,0.0
NaN,NaN,1.0,1.0,0.4,NaN,0.4,0.0
2.0,NaN,NaN,2.0,1.2999999999999998,0.7,NaN,0.0
2.0,NaN,NaN,2.0,1.5,0.8,NaN,0.0
NaN,NaN,1.0,1.0,0.3,NaN,0.3,0.0
NaN,NaN,2.0,2.0,0.8,NaN,0.4,0.0
NaN,NaN,2.0,2.0,0.8,NaN,0.4,0.0
3.0,NaN,NaN,3.0,2.2,0.8,NaN,0.0
1.0,NaN,NaN,1.0,0.6,0.6,NaN,0.0
1.0,NaN,NaN,1.0,0.6,0.6,NaN,0.0
1.0,NaN,1.0,2.0,0.8999999999999999,0.6,0.3,0.0
1.0,NaN,NaN,1.0,0.8,0.8,NaN,0.0
NaN,NaN,1.0,1.0,0.4,NaN,0.4,0.0
NaN,NaN,1.0,1.0,0.3,NaN,0.3,0.0
1.0,NaN,NaN,1.0,0.7,0.7,NaN,0.0
1.0,NaN,1.0,2.0,1.2,0.9,0.3,0.0
1.0,NaN,1.0,2.0,1.2000000000000002,0.8,0.4,0.0
2.0,NaN,2.0,4.0,2.0,0.8,0.3,0.0
1.0,NaN,NaN,1.0,0.6,0.6,NaN,0.0
NaN,NaN,1.0,1.0,0.3,NaN,0.3,0.0
NaN,NaN,1.0,1.0,0.4,NaN,0.4,0.0
NaN,NaN,1.0,1.0,0.4,NaN,0.4,0.0
3.0,NaN,NaN,3.0,2.1,0.8,NaN,0.0
3.0,NaN,NaN,3.0,2.3,0.9,NaN,0.0
2.0,NaN,NaN,2.0,1.6,0.8,NaN,0.0
1.0,NaN,NaN,1.0,0.9,0.9,NaN,0.0
1.0,NaN,NaN,1.0,0.9,0.9,NaN,0.0
3.0,NaN,1.0,4.0,2.5999999999999996,0.9,0.4,0.0
2.0,NaN,NaN,2.0,1.2999999999999998,0.7,NaN,0.0
NaN,NaN,1.0,1.0,0.4,NaN,0.4,0.0
2.0,NaN,2.0,4.0,1.8999999999999997,0.7,0.2,0.0
1.0,NaN,1.0,2.0,1.0,0.6,0.4,0.0
1.0,NaN,2.0,3.0,1.3,0.7,0.2,0.0
1.0,NaN,NaN,1.0,0.7,0.7,NaN,0.0
NaN,NaN,3.0,3.0,1.0,NaN,0.3,0.0
1.0,NaN,1.0,2.0,1.0,0.7,0.3,0.0
NaN,NaN,1.0,1.0,0.3,NaN,0.3,0.0
NaN,NaN,1.0,1.0,0.3,NaN,0.3,0.0
4.0,NaN,NaN,4.0,2.8000000000000003,0.9,NaN,0.0
1.0,NaN,NaN,1.0,0.6,0.6,NaN,0.0
1.0,NaN,1.0,2.0,1.0,0.6,0.4,0.0
1.0,NaN,1.0,2.0,1.0,0.6,0.4,0.0
NaN,NaN,3.0,3.0,0.8999999999999999,NaN,0.3,0.0
2.0,NaN,NaN,2.0,1.5,0.8,NaN,0.0
1.0,NaN,1.0,2.0,1.0,0.6,0.4,0.0
NaN,NaN,1.0,1.0,0.3,NaN,0.3,0.0
1.0,NaN,NaN,1.0,0.6,0.6,NaN,0.0
NaN,NaN,1.0,1.0,0.4,NaN,0.4,0.0
NaN,NaN,1.0,1.0,0.4,NaN,0.4,0.0
NaN,NaN,1.0,1.0,0.4,NaN,0.4,0.0
1.0,NaN,NaN,1.0,0.8,0.8,NaN,0.0
NaN,NaN,1.0,1.0,0.4,NaN,0.4,0.0
NaN,NaN,1.0,1.0,0.3,NaN,0.3,0.0
1.0,NaN,NaN,1.0,0.8,0.8,NaN,0.0
NaN,NaN,1.0,1.0,0.4,NaN,0.4,0.0
2.0,NaN,NaN,2.0,1.2,0.6,NaN,0.0
1.0,NaN,NaN,1.0,0.7,0.7,NaN,0.0
1.0,NaN,2.0,3.0,1.5000000000000002,0.8,0.3,0.0
1.0,NaN,NaN,1.0,0.7,0.7,NaN,0.0
NaN,NaN,1.0,1.0,0.4,NaN,0.4,0.0
3.0,NaN,NaN,3.0,2.2,0.8,NaN,0.0
1.0,NaN,NaN,1.0,0.7,0.7,NaN,0.0
NaN,NaN,2.0,2.0,0.8,NaN,0.4,0.0
1.0,NaN,NaN,1.0,0.6,0.6,NaN,0.0
NaN,NaN,1.0,1.0,0.3,NaN,0.3,0.0
1.0,NaN,1.0,2.0,1.0,0.6,0.4,0.0
2.0,NaN,NaN,2.0,1.2999999999999998,0.7,NaN,0.0
2.0,NaN,NaN,2.0,1.2999999999999998,0.7,NaN,0.0
1.0,NaN,1.0,2.0,1.1,0.7,0.4,0.0
1.0,NaN,NaN,1.0,0.6,0.6,NaN,0.0
1.0,NaN,1.0,2.0,1.2000000000000002,0.8,0.4,0.0
NaN,NaN,1.0,1.0,0.4,NaN,0.4,0.0
1.0,NaN,1.0,2.0,1.0,0.7,0.3,0.0
NaN,NaN,1.0,1.0,0.3,NaN,0.3,0.0
NaN,NaN,1.0,1.0,0.3,NaN,0.3,0.0
2.0,NaN,1.0,3.0,2.0,0.9,0.4,0.0
1.0,NaN,1.0,2.0,1.0,0.7,0.3,0.0
NaN,NaN,1.0,1.0,0.3,NaN,0.3,0.0
NaN,NaN,1.0,1.0,0.3,NaN,0.3,0.0
1.0,NaN,1.0,2.0,1.3,0.9,0.4,0.0
NaN,NaN,4.0,4.0,1.0,NaN,0.2,0.0
NaN,NaN,2.0,2.0,0.6,NaN,0.3,0.0
1.0,NaN,1.0,2.0,1.0,0.6,0.4,0.0
NaN,NaN,1.0,1.0,0.3,NaN,0.3,0.0
1.0,NaN,NaN,1.0,0.7,0.7,NaN,0.0
1.0,NaN,NaN,1.0,0.7,0.7,NaN,0.0
NaN,NaN,1.0,1.0,0.4,NaN,0.4,0.0
NaN,NaN,1.0,1.0,0.4,NaN,0.4,0.0
NaN,NaN,2.0,2.0,0.6,NaN,0.3,0.0
1.0,NaN,NaN,1.0,0.8,0.8,NaN,0.0
2.0,NaN,NaN,2.0,1.2999999999999998,0.7,NaN,0.0
3.0,NaN,NaN,3.0,1.7999999999999998,0.6,NaN,0.0
2.0,NaN,2.0,4.0,2.3000000000000003,0.9,0.2,0.0
1.0,NaN,NaN,1.0,0.9,0.9,NaN,0.0
1.0,NaN,NaN,1.0,0.7,0.7,NaN,0.0
1.0,NaN,1.0,2.0,1.0,0.6,0.4,0.0
NaN,NaN,1.0,1.0,0.4,NaN,0.4,0.0
NaN,NaN,1.0,1.0,0.4,NaN,0.4,0.0
1.0,NaN,2.0,3.0,1.4,0.8,0.2,0.0
1.0,NaN,NaN,1.0,0.7,0.7,NaN,0.0
1.0,NaN,2.0,3.0,1.2999999999999998,0.6,0.3,0.0
1.0,NaN,2.0,3.0,1.2999999999999998,0.6,0.3,0.0
1.0,NaN,2.0,3.0,1.2999999999999998,0.6,0.3,0.0
1.0,NaN,1.0,2.0,1.0,0.8,0.2,0.0
4.0,NaN,1.0,5.0,2.8000000000000003,0.6,0.4,0.0
NaN,NaN,1.0,1.0,0.4,NaN,0.4,0.0
NaN,NaN,1.0,1.0,0.3,NaN,0.3,0.0
NaN,NaN,2.0,2.0,0.6,NaN,0.3,0.0
1.0,NaN,2.0,3.0,1.3,0.7,0.2,1.0
1.0,NaN,NaN,1.0,0.7,0.7,NaN,1.0
1.0,NaN,1.0,2.0,0.8999999999999999,0.6,0.3,1.0
1.0,NaN,NaN,1.0,0.7,0.7,NaN,1.0
1.0,NaN,1.0,2.0,1.0,0.7,0.3,1.0
1.0,NaN,2.0,3.0,1.3,0.7,0.2,1.0
1.0,NaN,NaN,1.0,0.7,0.7,NaN,1.0
1.0,NaN,1.0,2.0,0.8999999999999999,0.6,0.3,1.0
2.0,NaN,2.0,4.0,2.0,0.7,0.3,0.0
2.0,NaN,NaN,2.0,1.2,0.6,NaN,0.0
1.0,NaN,NaN,1.0,0.7,0.7,NaN,0.0
NaN,NaN,1.0,1.0,0.4,NaN,0.4,0.0
1.0,NaN,NaN,1.0,0.7,0.7,NaN,0.0
2.0,NaN,NaN,2.0,1.4,0.7,NaN,0.0
2.0,NaN,NaN,2.0,1.4,0.8,NaN,0.0
1.0,NaN,1.0,2.0,1.0,0.6,0.4,0.0
1.0,NaN,NaN,1.0,0.7,0.7,NaN,0.0
2.0,NaN,NaN,2.0,1.2,0.6,NaN,0.0
1.0,NaN,NaN,1.0,0.6,0.6,NaN,0.0
4.0,NaN,1.0,5.0,3.1,0.8,0.4,0.0
NaN,NaN,1.0,1.0,0.4,NaN,0.4,0.0
2.0,NaN,1.0,3.0,1.7,0.7,0.3,0.0
2.0,NaN,1.0,3.0,1.7,0.7,0.3,0.0
2.0,NaN,NaN,2.0,1.2,0.6,NaN,0.0
1.0,NaN,1.0,2.0,1.1,0.7,0.4,0.0
NaN,NaN,1.0,1.0,0.4,NaN,0.4,0.0
NaN,NaN,2.0,2.0,0.7,NaN,0.3,0.0
1.0,NaN,NaN,1.0,0.6,0.6,NaN,0.0
NaN,NaN,1.0,1.0,0.3,NaN,0.3,0.0
3.0,NaN,NaN,3.0,2.2,0.8,NaN,0.0
1.0,NaN,NaN,1.0,0.6,0.6,NaN,0.0
NaN,NaN,1.0,1.0,0.3,NaN,0.3,0.0
NaN,NaN,1.0,1.0,0.4,NaN,0.4,0.0
1.0,NaN,2.0,3.0,1.3,0.6,0.3,0.0
1.0,NaN,NaN,1.0,0.7,0.7,NaN,0.0
NaN,NaN,1.0,1.0,0.3,NaN,0.3,0.0
NaN,NaN,1.0,1.0,0.3,NaN,0.3,0.0
1.0,NaN,NaN,1.0,0.7,0.7,NaN,0.0
NaN,NaN,1.0,1.0,0.4,NaN,0.4,0.0
2.0,NaN,1.0,3.0,1.7,0.7,0.4,0.0
NaN,NaN,1.0,1.0,0.4,NaN,0.4,0.0
1.0,NaN,NaN,1.0,0.6,0.6,NaN,0.0
1.0,NaN,1.0,2.0,1.4,1.0,0.4,0.0
NaN,NaN,1.0,1.0,0.3,NaN,0.3,0.0
1.0,NaN,1.0,2.0,1.2000000000000002,0.8,0.4,0.0
2.0,NaN,NaN,2.0,1.4,0.8,NaN,0.0
NaN,NaN,2.0,2.0,0.6,NaN,0.3,0.0
NaN,NaN,1.0,1.0,0.4,NaN,0.4,0.0
NaN,NaN,1.0,1.0,0.3,NaN,0.3,0.0
1.0,NaN,NaN,1.0,0.8,0.8,NaN,0.0
2.0,NaN,1.0,3.0,1.8,0.8,0.3,0.0
3.0,NaN,1.0,4.0,2.7,0.8,0.3,0.0
3.0,NaN,NaN,3.0,1.9999999999999998,0.7,NaN,0.0
1.0,NaN,NaN,1.0,0.7,0.7,NaN,0.0
1.0,NaN,NaN,1.0,0.8,0.8,NaN,0.0
NaN,NaN,1.0,1.0,0.4,NaN,0.4,0.0
1.0,NaN,NaN,1.0,0.6,0.6,NaN,0.0
1.0,NaN,1.0,2.0,1.0,0.8,0.2,0.0
NaN,NaN,1.0,1.0,0.4,NaN,0.4,0.0
NaN,NaN,1.0,1.0,0.3,NaN,0.3,0.0
1.0,NaN,1.0,2.0,1.0,0.6,0.4,0.0
2.0,NaN,NaN,2.0,1.6,0.8,NaN,0.0
1.0,NaN,NaN,1.0,0.6,0.6,NaN,0.0
2.0,NaN,NaN,2.0,1.4,0.7,NaN,0.0
1.0,NaN,NaN,1.0,0.8,0.8,NaN,0.0
1.0,NaN,NaN,1.0,0.6,0.6,NaN,0.0
2.0,NaN,NaN,2.0,1.9,1.0,NaN,0.0
NaN,NaN,1.0,1.0,0.4,NaN,0.4,0.0
1.0,NaN,NaN,1.0,0.6,0.6,NaN,0.0
NaN,NaN,1.0,1.0,0.3,NaN,0.3,0.0
3.0,NaN,NaN,3.0,2.0999999999999996,0.7,NaN,0.0
1.0,NaN,NaN,1.0,0.6,0.6,NaN,0.0
2.0,NaN,NaN,2.0,1.4,0.7,NaN,0.0
NaN,NaN,1.0,1.0,0.3,NaN,0.3,0.0
1.0,NaN,NaN,1.0,0.8,0.8,NaN,0.0
1.0,NaN,NaN,1.0,0.6,0.6,NaN,0.0
2.0,NaN,1.0,3.0,2.0,0.8,0.4,0.0
2.0,NaN,NaN,2.0,1.8,0.9,NaN,0.0
NaN,NaN,3.0,3.0,0.8999999999999999,NaN,0.2,0.0
1.0,NaN,NaN,1.0,0.6,0.6,NaN,0.0
1.0,NaN,NaN,1.0,0.7,0.7,NaN,0.0
2.0,NaN,NaN,2.0,1.4,0.7,NaN,0.0
1.0,NaN,NaN,1.0,0.7,0.7,NaN,0.0
3.0,NaN,NaN,3.0,2.0999999999999996,0.8,NaN,0.0
NaN,NaN,1.0,1.0,0.3,NaN,0.3,0.0
1.0,NaN,NaN,1.0,0.6,0.6,NaN,0.0
NaN,NaN,1.0,1.0,0.3,NaN,0.3,0.0
3.0,NaN,NaN,3.0,2.0999999999999996,0.7,NaN,0.0
1.0,NaN,NaN,1.0,0.6,0.6,NaN,0.0
1.0,NaN,NaN,1.0,0.6,0.6,NaN,0.0
1.0,NaN,1.0,2.0,0.8999999999999999,0.6,0.3,0.0
NaN,NaN,1.0,1.0,0.3,NaN,0.3,0.0
NaN,NaN,1.0,1.0,0.3,NaN,0.3,0.0
1.0,NaN,NaN,1.0,0.8,0.8,NaN,0.0
1.0,NaN,NaN,1.0,0.7,0.7,NaN,0.0
2.0,NaN,NaN,2.0,1.2999999999999998,0.7,NaN,0.0
1.0,NaN,1.0,2.0,1.1,0.8,0.3,0.0
1.0,NaN,NaN,1.0,0.6,0.6,NaN,0.0
1.0,NaN,NaN,1.0,0.6,0.6,NaN,0.0
NaN,NaN,1.0,1.0,0.3,NaN,0.3,0.0
NaN,NaN,1.0,1.0,0.4,NaN,0.4,0.0
1.0,NaN,NaN,1.0,0.6,0.6,NaN,0.0
1.0,NaN,NaN,1.0,0.6,0.6,NaN,0.0
1.0,NaN,1.0,2.0,1.0,0.6,0.4,0.0
1.0,NaN,NaN,1.0,0.8,0.8,NaN,0.0
NaN,NaN,2.0,2.0,0.7,NaN,0.3,0.0
NaN,NaN,2.0,2.0,0.8,NaN,0.4,0.0
NaN,NaN,1.0,1.0,0.3,NaN,0.3,0.0
1.0,NaN,1.0,2.0,1.1,0.7,0.4,0.0
2.0,NaN,NaN,2.0,1.2999999999999998,0.7,NaN,0.0
1.0,NaN,NaN,1.0,0.7,0.7,NaN,0.0
NaN,NaN,3.0,3.0,0.9,NaN,0.2,0.0
1.0,NaN,3.0,4.0,1.5,0.6,0.3,0.0
NaN,NaN,1.0,1.0,0.4,NaN,0.4,0.0
NaN,NaN,1.0,1.0,0.4,NaN,0.4,0.0
1.0,NaN,NaN,1.0,0.8,0.8,NaN,0.0
NaN,NaN,1.0,1.0,0.4,NaN,0.4,0.0
1.0,NaN,NaN,1.0,0.7,0.7,NaN,0.0
NaN,NaN,2.0,2.0,0.8,NaN,0.4,0.0
3.0,NaN,NaN,3.0,2.0999999999999996,0.7,NaN,0.0
NaN,NaN,2.0,2.0,0.8,NaN,0.4,0.0
2.0,NaN,NaN,2.0,1.2,0.6,NaN,0.0
NaN,NaN,1.0,1.0,0.4,NaN,0.4,0.0
2.0,NaN,1.0,3.0,1.7,0.7,0.3,0.0
1.0,NaN,NaN,1.0,0.6,0.6,NaN,0.0
2.0,NaN,1.0,3.0,1.7,0.7,0.3,0.0
NaN,NaN,2.0,2.0,0.8,NaN,0.4,0.0
NaN,NaN,1.0,1.0,0.3,NaN,0.3,0.0
NaN,NaN,1.0,1.0,0.2,NaN,0.2,0.0
1.0,NaN,NaN,1.0,0.6,0.6,NaN,0.0
1.0,NaN,NaN,1.0,0.6,0.6,NaN,0.0
NaN,NaN,1.0,1.0,0.4,NaN,0.4,0.0
NaN,NaN,2.0,2.0,0.7,NaN,0.3,0.0
4.0,NaN,2.0,6.0,3.7,0.8,0.3,0.0
1.0,NaN,NaN,1.0,0.7,0.7,NaN,0.0
NaN,NaN,1.0,1.0,0.4,NaN,0.4,0.0
NaN,NaN,2.0,2.0,0.7,NaN,0.3,0.0
1.0,NaN,1.0,2.0,1.3,0.9,0.4,0.0
1.0,NaN,1.0,2.0,1.1,0.7,0.4,0.0
1.0,NaN,NaN,1.0,0.7,0.7,NaN,0.0
NaN,NaN,1.0,1.0,0.4,NaN,0.4,0.0
1.0,NaN,NaN,1.0,0.7,0.7,NaN,0.0
1.0,NaN,NaN,1.0,0.7,0.7,NaN,0.0
1.0,NaN,NaN,1.0,0.6,0.6,NaN,0.0
1.0,NaN,NaN,1.0,0.7,0.7,NaN,0.0
1.0,NaN,1.0,2.0,0.8999999999999999,0.6,0.3,0.0
3.0,NaN,2.0,5.0,2.8999999999999995,0.9,0.3,0.0
1.0,NaN,NaN,1.0,0.7,0.7,NaN,0.0
1.0,NaN,NaN,1.0,0.7,0.7,NaN,0.0
1.0,NaN,NaN,1.0,0.8,0.8,NaN,0.0
1.0,NaN,1.0,2.0,0.8999999999999999,0.6,0.3,0.0
1.0,NaN,NaN,1.0,0.8,0.8,NaN,0.0
NaN,NaN,1.0,1.0,0.4,NaN,0.4,0.0
1.0,NaN,NaN,1.0,0.6,0.6,NaN,0.0
1.0,NaN,NaN,1.0,0.6,0.6,NaN,0.0
1.0,NaN,1.0,2.0,1.0,0.7,0.3,0.0
1.0,NaN,NaN,1.0,0.6,0.6,NaN,0.0
1.0,NaN,NaN,1.0,0.6,0.6,NaN,0.0
1.0,NaN,NaN,1.0,0.7,0.7,NaN,0.0
1.0,NaN,NaN,1.0,0.7,0.7,NaN,0.0
2.0,NaN,1.0,3.0,1.9000000000000001,0.8,0.3,0.0
2.0,NaN,NaN,2.0,1.5,0.8,NaN,1.0
1.0,NaN,1.0,2.0,0.8,0.6,0.2,1.0
1.0,NaN,NaN,1.0,1.0,1.0,NaN,0.0
1.0,NaN,2.0,3.0,1.3,0.7,0.3,0.0
1.0,NaN,NaN,1.0,0.6,0.6,NaN,0.0
