@relation dataTarining

@attribute posScore {p1, p2, p3}
@attribute negScore {n1, n2, n3}
@attribute objScore {obj1, obj2, obj3}
@attribute polarity {positive, negative, netral}

@data
p1,n1,obj1,netral
p1,n2,obj1,negative
p1,n1,obj1,netral
p1,n2,obj2,negative
p1,n1,obj1,netral
p1,n1,obj2,positive
p1,n2,obj2,negative
p2,n1,obj3,positive
p1,n1,obj1,negative
p3,n2,obj1,positive
p1,n1,obj1,positive
p1,n1,obj2,positive
p1,n1,obj1,netral
p1,n1,obj1,positive
p1,n1,obj1,positive
p1,n1,obj1,negative
p1,n1,obj1,netral
p1,n1,obj1,positive
