Sentence :;word1;word2;word3;;;
Sentiwordnet;a word many score in positive, negative and objective;;;;;
;;;;;;
posTag;a;;;;;
;r;;;;;
;v;;;;;
;n;;;;;
;;;;;;
;SumPositiveScore;SumNegatifScore;SumObjectifScore;SumAll;;
;1,750 ;0,000 ;61,250 ;63,000 ;;1,750 
;0,250 ;1375,000 ;13,375 ;15,000 ;;0,250 
;0,000 ;0,250 ;6,750 ;7,000 ;;0,000 
;0,500 ;0,000 ;23,500 ;24,000 ;;0,500 
;1,750 ;3,750 ;33,500 ;39,000 ;;1,750 
;7,875 ;3,375 ;22,750 ;34,000 ;;7,875 
;0,000 ;0,000 ;2,000 ;2,000 ;;0,000 
;0,125 ;0,000 ;29,875 ;30,000 ;;0,125 
;0,000 ;0,000 ;1,000 ;1,000 ;;0,000 
;0,875 ;3,125 ;45,000 ;49,000 ;;0,875 
;1,750 ;0,125 ;59,125 ;61,000 ;;1,750 
;0,125 ;0,000 ;12,875 ;13,000 ;;0,125 
;0,125 ;0,000 ;22,875 ;23,000 ;;0,125 
;0,000 ;0,000 ;3,000 ;3,000 ;;0,000 
;2,250 ;2,750 ;42,000 ;47,000 ;;2,250 
;;;;;;
;;;;;;
;;;;;;
min;0;0;1;1;;
max;7,875;1375;61,25;63;;
;;;;;;
binnig;< positive;;;;;
;positive;;;;;
;> positive;;;;;
